%!PS-Adobe-3.0 EPSF-1.2
%%BoundingBox: 0 0 260 187
%%HiResBoundingBox: 0 0 260 187
%%Creator: (Wolfram Mathematica 10.3 for Linux x86 (64-bit) (October 9, 2015))
%%CreationDate: (Wednesday, November 30, 2016)(13:50:01)
%%Title: Clipboard
%%DocumentNeededResources: font MathematicaSans
%%+ font Helvetica
%%+ font Helvetica-Oblique
%%DocumentSuppliedResources:
%%DocumentNeededFonts: MathematicaSans
%%+ Helvetica
%%+ Helvetica-Oblique
%%DocumentSuppliedFonts:
%%DocumentFonts: MathematicaSans
%%+ Helvetica
%%+ Helvetica-Oblique
%%EndComments
/p{gsave}bind def
/P{grestore}bind def
/g{setgray}bind def
/r{setrgbcolor}bind def
/k{setcmykcolor}bind def
/w{setlinewidth}bind def
/np{newpath}bind def
/m{moveto}bind def
/Mr{rmoveto}bind def
/Mx{currentpoint exch pop moveto}bind def
/My{currentpoint pop exch moveto}bind def
/X{0 rmoveto}bind def
/Y{0 exch rmoveto}bind def
/N{currentpoint 3 -1 roll show moveto}bind def
/L{lineto}bind def
/rL{rlineto}bind def
/C{curveto}bind def
/cp{closepath}bind def
/F{eofill}bind def
/f{fill}bind def
/s{stroke}bind def
/S{show}bind def
/tri{p 9 6 roll r 6 4 roll m 4 2 roll L L cp F P}bind def
/Msf{findfont exch scalefont[1 0 0 -1 0 0]makefont setfont}bind def
1 -1 scale 0 -186.744 translate
[1 0 0 1 0 0 ]  concat
1 w
0 g
0 g
[ ] 0 setdash
2 setlinecap
0 setlinejoin
10 setmiterlimit
p
0.384 0.549 0.698 r
0 0 m
F
P
p
1 w
0 g
0 g
[ ] 0 setdash
2 setlinecap
0 setlinejoin
10 setmiterlimit
p
np 0 0 m
0 187 L
260 187 L
260 0 L
cp
clip np
p
np -2 -2 m
-2 189 L
262 189 L
262 -2 L
cp
clip np
p
0 setlinecap
p
P
0 g
P
p
P
p
np 49 4 m
49 17 L
211 17 L
211 4 L
cp
clip np
P
p
0 setlinecap
p
P
0 g
P
p
0 setlinecap
p
P
0 g
P
p
np 49 6 m
49 15 L
65 15 L
65 6 L
cp
clip np
3.239 setmiterlimit
0.368 0.507 0.71 r
1.152 w
[ ] 0 setdash
3.25 setmiterlimit
50.376 11.2 m
63.624 11.2 L
s
P
%%IncludeResource: font Helvetica
%%IncludeFont: Helvetica
9.36 /Helvetica Msf
0 g
%%IncludeResource: font MathematicaSans
%%IncludeFont: MathematicaSans
9.36 /MathematicaSans Msf
p
[1 0 0 1 68.68 13.3 ]  concat
1 w
[ ] 0 setdash
8.25 -5.531 m
7.578 -2.391 L
7.495 -1.974 7.357 -1.607 7.164 -1.289 C
6.971 -0.971 6.734 -0.708 6.453 -0.5 C
6.172 -0.292 5.852 -0.135 5.492 -0.0312 C
5.133 0.0729 4.745 0.125 4.328 0.125 C
3.906 2.125 L
2.969 2.125 L
3.391 0.125 L
3.375 0.125 L
3.073 0.125 2.786 0.0938 2.516 0.0312 C
2.245 -0.0312 2.008 -0.135 1.805 -0.281 C
1.602 -0.427 1.438 -0.617 1.312 -0.852 C
1.188 -1.086 1.125 -1.37 1.125 -1.703 C
1.125 -1.818 1.133 -1.932 1.148 -2.047 C
1.164 -2.161 1.182 -2.276 1.203 -2.391 C
1.891 -5.531 L
2.828 -5.531 L
2.25 -2.812 L
2.208 -2.635 2.174 -2.458 2.148 -2.281 C
2.122 -2.104 2.109 -1.927 2.109 -1.75 C
2.109 -1.552 2.154 -1.385 2.242 -1.25 C
2.331 -1.115 2.445 -1.005 2.586 -0.922 C
2.727 -0.839 2.883 -0.776 3.055 -0.734 C
3.227 -0.693 3.396 -0.667 3.562 -0.656 C
4.703 -6 L
5.641 -6 L
4.5 -0.656 L
4.875 -0.688 5.188 -0.753 5.438 -0.852 C
5.688 -0.951 5.896 -1.089 6.062 -1.266 C
6.229 -1.443 6.365 -1.659 6.469 -1.914 C
6.573 -2.169 6.661 -2.469 6.734 -2.812 C
7.312 -5.531 L
8.25 -5.531 L
cp
F
[1 0 0 1 6.75 0 ]  concat
1 w
[ ] 0 setdash
P
p
[1 0 0 1 75.43 13.3 ]  concat
1 w
[ ] 0 setdash
3.172 2.25 m
2.5 2.25 L
2.219 1.896 1.966 1.521 1.742 1.125 C
1.518 0.729 1.323 0.318 1.156 -0.109 C
0.99 -0.536 0.862 -0.971 0.773 -1.414 C
0.685 -1.857 0.641 -2.307 0.641 -2.766 C
0.641 -3.224 0.685 -3.677 0.773 -4.125 C
0.862 -4.573 0.99 -5.005 1.156 -5.422 C
1.323 -5.839 1.521 -6.245 1.75 -6.641 C
1.979 -7.036 2.229 -7.417 2.5 -7.781 C
3.172 -7.781 L
2.922 -7.375 2.701 -6.977 2.508 -6.586 C
2.315 -6.195 2.154 -5.797 2.023 -5.391 C
1.893 -4.984 1.792 -4.568 1.719 -4.141 C
1.646 -3.714 1.609 -3.26 1.609 -2.781 C
1.609 -2.333 1.648 -1.891 1.727 -1.453 C
1.805 -1.016 1.911 -0.586 2.047 -0.164 C
2.182 0.258 2.344 0.672 2.531 1.078 C
2.719 1.484 2.932 1.875 3.172 2.25 C
cp
F
[1 0 0 1 2.997 0 ]  concat
1 w
[ ] 0 setdash
P
%%IncludeResource: font Helvetica
%%IncludeFont: Helvetica
9.36 /Helvetica Msf
p
[1 0 0 1 78.427 13.3 ]  concat
1 w
[ ] 0 setdash
3.125 -2.891 m
5 -5.594 L
4 -5.594 L
2.656 -3.562 L
1.297 -5.594 L
0.281 -5.594 L
2.156 -2.859 L
0.188 0 L
1.203 0 L
2.609 -2.141 L
4.016 0 L
5.047 0 L
3.125 -2.891 L
cp
F
[1 0 0 1 4.68 0 ]  concat
1 w
[ ] 0 setdash
P
%%IncludeResource: font MathematicaSans
%%IncludeFont: MathematicaSans
9.36 /MathematicaSans Msf
p
[1 0 0 1 83.107 13.3 ]  concat
1 w
[ ] 0 setdash
2.922 -2.766 m
2.922 -2.307 2.875 -1.857 2.781 -1.414 C
2.688 -0.971 2.56 -0.539 2.398 -0.117 C
2.237 0.305 2.042 0.714 1.812 1.109 C
1.583 1.505 1.333 1.885 1.062 2.25 C
0.391 2.25 L
0.63 1.854 0.849 1.458 1.047 1.062 C
1.245 0.667 1.409 0.266 1.539 -0.141 C
1.669 -0.547 1.771 -0.966 1.844 -1.398 C
1.917 -1.831 1.953 -2.281 1.953 -2.75 C
1.953 -3.198 1.914 -3.641 1.836 -4.078 C
1.758 -4.516 1.651 -4.945 1.516 -5.367 C
1.38 -5.789 1.216 -6.203 1.023 -6.609 C
0.831 -7.016 0.62 -7.406 0.391 -7.781 C
1.062 -7.781 L
1.344 -7.427 1.599 -7.052 1.828 -6.656 C
2.057 -6.26 2.253 -5.849 2.414 -5.422 C
2.576 -4.995 2.701 -4.557 2.789 -4.109 C
2.878 -3.661 2.922 -3.214 2.922 -2.766 C
cp
F
[1 0 0 1 2.997 0 ]  concat
1 w
[ ] 0 setdash
P
%%IncludeResource: font Helvetica
%%IncludeFont: Helvetica
9.36 /Helvetica Msf
p
np 94 6 m
94 15 L
110 15 L
110 6 L
cp
clip np
3.239 setmiterlimit
0.881 0.611 0.142 r
1.152 w
[ ] 0 setdash
3.25 setmiterlimit
95.544 11.2 m
108.792 11.2 L
s
P
p
[1 0 0 1 113.883 13.3 ]  concat
1 w
[ ] 0 setdash
1.984 -3.359 m
4.547 -3.359 L
5.438 -3.359 5.828 -2.922 5.828 -1.969 C
5.828 -1.266 L
5.828 -0.797 5.906 -0.328 6.047 0 C
7.25 0 L
7.25 -0.25 L
6.875 -0.5 6.797 -0.781 6.781 -1.812 C
6.766 -3.094 6.562 -3.484 5.719 -3.844 C
6.594 -4.266 6.953 -4.812 6.953 -5.703 C
6.953 -7.047 6.109 -7.781 4.578 -7.781 C
1 -7.781 L
1 0 L
1.984 0 L
1.984 -3.359 L
cp
1.984 -4.234 m
1.984 -6.906 L
4.391 -6.906 L
4.953 -6.906 5.266 -6.828 5.516 -6.609 C
5.781 -6.391 5.922 -6.031 5.922 -5.562 C
5.922 -4.641 5.453 -4.234 4.391 -4.234 C
1.984 -4.234 L
cp
F
[1 0 0 1 6.758 0 ]  concat
1 w
[ ] 0 setdash
5.484 -2.5 m
5.484 -3.359 5.422 -3.859 5.25 -4.281 C
4.891 -5.203 4.047 -5.75 3 -5.75 C
1.438 -5.75 0.422 -4.562 0.422 -2.719 C
0.422 -0.891 1.406 0.25 2.969 0.25 C
4.25 0.25 5.141 -0.484 5.359 -1.703 C
4.469 -1.703 L
4.219 -0.969 3.719 -0.578 3 -0.578 C
2.438 -0.578 1.969 -0.828 1.672 -1.297 C
1.453 -1.625 1.375 -1.938 1.375 -2.5 C
5.484 -2.5 L
cp
1.391 -3.219 m
1.469 -4.266 2.094 -4.938 2.984 -4.938 C
3.859 -4.938 4.531 -4.203 4.531 -3.297 C
4.531 -3.266 4.531 -3.25 4.516 -3.219 C
1.391 -3.219 L
cp
F
[1 0 0 1 5.204 0 ]  concat
1 w
[ ] 0 setdash
P
%%IncludeResource: font MathematicaSans
%%IncludeFont: MathematicaSans
9.36 /MathematicaSans Msf
p
[1 0 0 1 125.845 13.3 ]  concat
1 w
[ ] 0 setdash
2.797 2.125 m
0.719 2.125 L
0.719 -7.656 L
2.797 -7.656 L
2.797 -6.875 L
1.672 -6.875 L
1.672 1.344 L
2.797 1.344 L
2.797 2.125 L
cp
F
[1 0 0 1 2.501 0 ]  concat
1 w
[ ] 0 setdash
P
%%IncludeResource: font Helvetica-Oblique
%%IncludeFont: Helvetica-Oblique
9.36 /Helvetica-Oblique Msf
p
[1 0 0 1 128.346 13.3 ]  concat
1 w
[ ] 0 setdash
0.953 0 m
3.969 0 L
5.109 0 6.094 -0.484 6.875 -1.438 C
7.594 -2.312 8.109 -3.875 8.109 -5.219 C
8.109 -5.984 7.781 -6.781 7.281 -7.234 C
6.875 -7.594 6.312 -7.781 5.625 -7.781 C
2.609 -7.781 L
0.953 0 L
cp
2.141 -0.875 m
3.422 -6.906 L
5.25 -6.906 L
6.391 -6.906 7.078 -6.234 7.078 -5.125 C
7.078 -4.141 6.734 -2.859 6.312 -2.188 C
5.75 -1.328 4.953 -0.875 3.969 -0.875 C
2.141 -0.875 L
cp
F
[1 0 0 1 6.758 0 ]  concat
1 w
[ ] 0 setdash
P
%%IncludeResource: font Helvetica
%%IncludeFont: Helvetica
6.646 /Helvetica Msf
p
[1 0 0 1 135.104 14.8 ]  concat
1 w
[ ] 0 setdash
3.766 -2.781 m
3.734 -3.188 3.641 -3.453 3.484 -3.672 C
3.188 -4.062 2.688 -4.297 2.109 -4.297 C
0.984 -4.297 0.25 -3.406 0.25 -2.016 C
0.25 -0.672 0.969 0.188 2.094 0.188 C
3.094 0.188 3.734 -0.422 3.812 -1.438 C
3.141 -1.438 L
3.031 -0.766 2.688 -0.438 2.109 -0.438 C
1.375 -0.438 0.938 -1.031 0.938 -2.016 C
0.938 -3.062 1.375 -3.688 2.094 -3.688 C
2.656 -3.688 3.016 -3.359 3.094 -2.781 C
3.766 -2.781 L
cp
F
[1 0 0 1 3.32 0 ]  concat
1 w
[ ] 0 setdash
3.844 0 m
3.844 -4.188 L
3.188 -4.188 L
3.188 -1.812 L
3.188 -0.953 2.734 -0.406 2.047 -0.406 C
1.516 -0.406 1.188 -0.719 1.188 -1.219 C
1.188 -4.188 L
0.516 -4.188 L
0.516 -0.953 L
0.516 -0.266 1.031 0.188 1.844 0.188 C
2.469 0.188 2.859 -0.0312 3.25 -0.578 C
3.25 0 L
3.844 0 L
cp
F
[1 0 0 1 3.692 0 ]  concat
1 w
[ ] 0 setdash
2.031 -4.188 m
1.344 -4.188 L
1.344 -5.328 L
0.672 -5.328 L
0.672 -4.188 L
0.109 -4.188 L
0.109 -3.641 L
0.672 -3.641 L
0.672 -0.484 L
0.672 -0.0625 0.969 0.188 1.484 0.188 C
1.641 0.188 1.797 0.172 2.031 0.125 C
2.031 -0.438 L
1.938 -0.406 1.828 -0.406 1.703 -0.406 C
1.422 -0.406 1.344 -0.484 1.344 -0.781 C
1.344 -3.641 L
2.031 -3.641 L
2.031 -4.188 L
cp
F
[1 0 0 1 1.846 0 ]  concat
1 w
[ ] 0 setdash
2.172 -4.297 m
1 -4.297 0.281 -3.469 0.281 -2.062 C
0.281 -0.656 0.984 0.188 2.172 0.188 C
3.359 0.188 4.062 -0.656 4.062 -2.031 C
4.062 -3.469 3.375 -4.297 2.172 -4.297 C
cp
2.172 -3.688 m
2.922 -3.688 3.375 -3.078 3.375 -2.031 C
3.375 -1.047 2.906 -0.438 2.172 -0.438 C
1.438 -0.438 0.984 -1.047 0.984 -2.062 C
0.984 -3.062 1.438 -3.688 2.172 -3.688 C
cp
F
[1 0 0 1 3.692 0 ]  concat
1 w
[ ] 0 setdash
2.062 -4.188 m
1.359 -4.188 L
1.359 -4.844 L
1.359 -5.109 1.531 -5.266 1.828 -5.266 C
1.891 -5.266 1.906 -5.266 2.062 -5.25 C
2.062 -5.797 L
1.906 -5.828 1.812 -5.844 1.688 -5.844 C
1.062 -5.844 0.703 -5.484 0.703 -4.891 C
0.703 -4.188 L
0.141 -4.188 L
0.141 -3.641 L
0.703 -3.641 L
0.703 0 L
1.359 0 L
1.359 -3.641 L
2.062 -3.641 L
2.062 -4.188 L
cp
F
[1 0 0 1 1.846 0 ]  concat
1 w
[ ] 0 setdash
2.062 -4.188 m
1.359 -4.188 L
1.359 -4.844 L
1.359 -5.109 1.531 -5.266 1.828 -5.266 C
1.891 -5.266 1.906 -5.266 2.062 -5.25 C
2.062 -5.797 L
1.906 -5.828 1.812 -5.844 1.688 -5.844 C
1.062 -5.844 0.703 -5.484 0.703 -4.891 C
0.703 -4.188 L
0.141 -4.188 L
0.141 -3.641 L
0.703 -3.641 L
0.703 0 L
1.359 0 L
1.359 -3.641 L
2.062 -3.641 L
2.062 -4.188 L
cp
F
[1 0 0 1 1.846 0 ]  concat
1 w
[ ] 0 setdash
P
%%IncludeResource: font MathematicaSans
%%IncludeFont: MathematicaSans
9.36 /MathematicaSans Msf
p
[1 0 0 1 151.706 13.3 ]  concat
1 w
[ ] 0 setdash
3.172 2.25 m
2.5 2.25 L
2.219 1.896 1.966 1.521 1.742 1.125 C
1.518 0.729 1.323 0.318 1.156 -0.109 C
0.99 -0.536 0.862 -0.971 0.773 -1.414 C
0.685 -1.857 0.641 -2.307 0.641 -2.766 C
0.641 -3.224 0.685 -3.677 0.773 -4.125 C
0.862 -4.573 0.99 -5.005 1.156 -5.422 C
1.323 -5.839 1.521 -6.245 1.75 -6.641 C
1.979 -7.036 2.229 -7.417 2.5 -7.781 C
3.172 -7.781 L
2.922 -7.375 2.701 -6.977 2.508 -6.586 C
2.315 -6.195 2.154 -5.797 2.023 -5.391 C
1.893 -4.984 1.792 -4.568 1.719 -4.141 C
1.646 -3.714 1.609 -3.26 1.609 -2.781 C
1.609 -2.333 1.648 -1.891 1.727 -1.453 C
1.805 -1.016 1.911 -0.586 2.047 -0.164 C
2.182 0.258 2.344 0.672 2.531 1.078 C
2.719 1.484 2.932 1.875 3.172 2.25 C
cp
F
[1 0 0 1 2.997 0 ]  concat
1 w
[ ] 0 setdash
P
%%IncludeResource: font Helvetica
%%IncludeFont: Helvetica
9.36 /Helvetica Msf
p
[1 0 0 1 154.703 13.3 ]  concat
1 w
[ ] 0 setdash
3.125 -2.891 m
5 -5.594 L
4 -5.594 L
2.656 -3.562 L
1.297 -5.594 L
0.281 -5.594 L
2.156 -2.859 L
0.188 0 L
1.203 0 L
2.609 -2.141 L
4.016 0 L
5.047 0 L
3.125 -2.891 L
cp
F
[1 0 0 1 4.68 0 ]  concat
1 w
[ ] 0 setdash
P
p
[1 0 0 1 159.383 13.3 ]  concat
1 w
[ ] 0 setdash
0.922 -1.109 m
0.922 0 L
1.562 0 L
1.562 0.188 L
1.562 0.922 1.438 1.141 0.922 1.172 C
0.922 1.562 L
1.672 1.562 2.047 1.094 2.047 0.172 C
2.047 -1.109 L
0.922 -1.109 L
cp
F
[1 0 0 1 2.602 0 ]  concat
1 w
[ ] 0 setdash
P
p
[1 0 0 1 161.985 13.3 ]  concat
1 w
[ ] 0 setdash
2.938 -7.578 m
2.234 -7.578 1.594 -7.266 1.203 -6.734 C
0.703 -6.078 0.453 -5.062 0.453 -3.656 C
0.453 -1.109 1.312 0.25 2.938 0.25 C
4.547 0.25 5.422 -1.109 5.422 -3.594 C
5.422 -5.078 5.188 -6.062 4.672 -6.734 C
4.281 -7.281 3.656 -7.578 2.938 -7.578 C
cp
2.938 -6.734 m
3.953 -6.734 4.453 -5.719 4.453 -3.688 C
4.453 -1.531 3.969 -0.531 2.922 -0.531 C
1.922 -0.531 1.422 -1.578 1.422 -3.656 C
1.422 -5.719 1.922 -6.734 2.938 -6.734 C
cp
F
[1 0 0 1 5.204 0 ]  concat
1 w
[ ] 0 setdash
P
p
[1 0 0 1 167.189 13.3 ]  concat
1 w
[ ] 0 setdash
0.922 -1.109 m
0.922 0 L
1.562 0 L
1.562 0.188 L
1.562 0.922 1.438 1.141 0.922 1.172 C
0.922 1.562 L
1.672 1.562 2.047 1.094 2.047 0.172 C
2.047 -1.109 L
0.922 -1.109 L
cp
F
[1 0 0 1 2.602 0 ]  concat
1 w
[ ] 0 setdash
P
%%IncludeResource: font MathematicaSans
%%IncludeFont: MathematicaSans
9.36 /MathematicaSans Msf
p
[1 0 0 1 169.79 13.3 ]  concat
1 w
[ ] 0 setdash
8.266 -5.547 m
8.109 -4.766 L
6.719 -4.766 L
6.656 -4.516 6.596 -4.266 6.539 -4.016 C
6.482 -3.766 6.432 -3.516 6.391 -3.266 C
6.349 -3.016 6.315 -2.763 6.289 -2.508 C
6.263 -2.253 6.25 -2 6.25 -1.75 C
6.25 -1.406 6.307 -1.094 6.422 -0.812 C
6.536 -0.531 6.698 -0.26 6.906 0 C
5.781 0 L
5.615 -0.271 5.492 -0.555 5.414 -0.852 C
5.336 -1.148 5.297 -1.458 5.297 -1.781 C
5.297 -2.031 5.312 -2.281 5.344 -2.531 C
5.375 -2.781 5.414 -3.031 5.461 -3.281 C
5.508 -3.531 5.56 -3.779 5.617 -4.023 C
5.674 -4.268 5.729 -4.516 5.781 -4.766 C
3.484 -4.766 L
3.411 -4.37 3.336 -3.956 3.258 -3.523 C
3.18 -3.091 3.083 -2.667 2.969 -2.25 C
2.854 -1.833 2.708 -1.432 2.531 -1.047 C
2.354 -0.661 2.125 -0.312 1.844 0 C
0.625 0 L
0.75 -0.135 0.872 -0.268 0.992 -0.398 C
1.112 -0.529 1.229 -0.667 1.344 -0.812 C
1.542 -1.094 1.706 -1.396 1.836 -1.719 C
1.966 -2.042 2.073 -2.375 2.156 -2.719 C
2.24 -3.062 2.31 -3.406 2.367 -3.75 C
2.424 -4.094 2.484 -4.432 2.547 -4.766 C
1.188 -4.766 L
1.344 -5.547 L
8.266 -5.547 L
cp
F
[1 0 0 1 6.104 0 ]  concat
1 w
[ ] 0 setdash
P
p
[1 0 0 1 175.895 13.3 ]  concat
1 w
[ ] 0 setdash
2.969 -7.656 m
0.75 0.25 L
0 0.25 L
2.219 -7.656 L
2.969 -7.656 L
cp
F
[1 0 0 1 2.501 0 ]  concat
1 w
[ ] 0 setdash
P
%%IncludeResource: font Helvetica
%%IncludeFont: Helvetica
9.36 /Helvetica Msf
p
[1 0 0 1 178.396 13.3 ]  concat
1 w
[ ] 0 setdash
3.5 -1.812 m
3.5 0 L
4.438 0 L
4.438 -1.812 L
5.547 -1.812 L
5.547 -2.656 L
4.438 -2.656 L
4.438 -7.578 L
3.734 -7.578 L
0.297 -2.812 L
0.297 -1.812 L
3.5 -1.812 L
cp
3.5 -2.656 m
1.125 -2.656 L
3.5 -5.969 L
3.5 -2.656 L
cp
F
[1 0 0 1 5.204 0 ]  concat
1 w
[ ] 0 setdash
P
p
[1 0 0 1 183.6 13.3 ]  concat
1 w
[ ] 0 setdash
0.922 -1.109 m
0.922 0 L
1.562 0 L
1.562 0.188 L
1.562 0.922 1.438 1.141 0.922 1.172 C
0.922 1.562 L
1.672 1.562 2.047 1.094 2.047 0.172 C
2.047 -1.109 L
0.922 -1.109 L
cp
F
[1 0 0 1 2.602 0 ]  concat
1 w
[ ] 0 setdash
P
p
[1 0 0 1 186.201 13.3 ]  concat
1 w
[ ] 0 setdash
2.766 -5.391 m
2.766 0 L
3.703 0 L
3.703 -7.578 L
3.094 -7.578 L
2.75 -6.406 2.547 -6.25 1.094 -6.062 C
1.094 -5.391 L
2.766 -5.391 L
cp
F
[1 0 0 1 5.204 0 ]  concat
1 w
[ ] 0 setdash
P
%%IncludeResource: font MathematicaSans
%%IncludeFont: MathematicaSans
9.36 /MathematicaSans Msf
p
[1 0 0 1 191.405 13.3 ]  concat
1 w
[ ] 0 setdash
2.969 -7.656 m
0.75 0.25 L
0 0.25 L
2.219 -7.656 L
2.969 -7.656 L
cp
F
[1 0 0 1 2.501 0 ]  concat
1 w
[ ] 0 setdash
P
%%IncludeResource: font Helvetica
%%IncludeFont: Helvetica
9.36 /Helvetica Msf
p
[1 0 0 1 193.906 13.3 ]  concat
1 w
[ ] 0 setdash
5.406 -0.922 m
1.422 -0.922 L
1.516 -1.547 1.859 -1.938 2.781 -2.484 C
3.859 -3.062 L
4.906 -3.641 5.453 -4.422 5.453 -5.344 C
5.453 -5.984 5.203 -6.562 4.75 -6.969 C
4.297 -7.375 3.75 -7.578 3.031 -7.578 C
2.078 -7.578 1.359 -7.234 0.938 -6.594 C
0.672 -6.188 0.562 -5.719 0.531 -4.953 C
1.469 -4.953 L
1.5 -5.453 1.562 -5.766 1.703 -6.016 C
1.938 -6.469 2.438 -6.75 3 -6.75 C
3.859 -6.75 4.5 -6.141 4.5 -5.328 C
4.5 -4.734 4.141 -4.219 3.469 -3.828 C
2.484 -3.281 L
0.906 -2.375 0.453 -1.672 0.359 0 C
5.406 0 L
5.406 -0.922 L
cp
F
[1 0 0 1 5.204 0 ]  concat
1 w
[ ] 0 setdash
2.938 -7.578 m
2.234 -7.578 1.594 -7.266 1.203 -6.734 C
0.703 -6.078 0.453 -5.062 0.453 -3.656 C
0.453 -1.109 1.312 0.25 2.938 0.25 C
4.547 0.25 5.422 -1.109 5.422 -3.594 C
5.422 -5.078 5.188 -6.062 4.672 -6.734 C
4.281 -7.281 3.656 -7.578 2.938 -7.578 C
cp
2.938 -6.734 m
3.953 -6.734 4.453 -5.719 4.453 -3.688 C
4.453 -1.531 3.969 -0.531 2.922 -0.531 C
1.922 -0.531 1.422 -1.578 1.422 -3.656 C
1.422 -5.719 1.922 -6.734 2.938 -6.734 C
cp
F
[1 0 0 1 5.204 0 ]  concat
1 w
[ ] 0 setdash
P
%%IncludeResource: font MathematicaSans
%%IncludeFont: MathematicaSans
9.36 /MathematicaSans Msf
p
[1 0 0 1 204.315 13.3 ]  concat
1 w
[ ] 0 setdash
2.922 -2.766 m
2.922 -2.307 2.875 -1.857 2.781 -1.414 C
2.688 -0.971 2.56 -0.539 2.398 -0.117 C
2.237 0.305 2.042 0.714 1.812 1.109 C
1.583 1.505 1.333 1.885 1.062 2.25 C
0.391 2.25 L
0.63 1.854 0.849 1.458 1.047 1.062 C
1.245 0.667 1.409 0.266 1.539 -0.141 C
1.669 -0.547 1.771 -0.966 1.844 -1.398 C
1.917 -1.831 1.953 -2.281 1.953 -2.75 C
1.953 -3.198 1.914 -3.641 1.836 -4.078 C
1.758 -4.516 1.651 -4.945 1.516 -5.367 C
1.38 -5.789 1.216 -6.203 1.023 -6.609 C
0.831 -7.016 0.62 -7.406 0.391 -7.781 C
1.062 -7.781 L
1.344 -7.427 1.599 -7.052 1.828 -6.656 C
2.057 -6.26 2.253 -5.849 2.414 -5.422 C
2.576 -4.995 2.701 -4.557 2.789 -4.109 C
2.878 -3.661 2.922 -3.214 2.922 -2.766 C
cp
F
[1 0 0 1 2.997 0 ]  concat
1 w
[ ] 0 setdash
P
p
[1 0 0 1 207.312 13.3 ]  concat
1 w
[ ] 0 setdash
2.25 2.125 m
0.172 2.125 L
0.172 1.344 L
1.297 1.344 L
1.297 -6.875 L
0.172 -6.875 L
0.172 -7.656 L
2.25 -7.656 L
2.25 2.125 L
cp
F
[1 0 0 1 2.501 0 ]  concat
1 w
[ ] 0 setdash
P
%%IncludeResource: font Helvetica
%%IncludeFont: Helvetica
9.36 /Helvetica Msf
p
np 0 24 m
0 186 L
260 186 L
260 24 L
cp
clip np
3.239 setmiterlimit
p
P
p
P
p
0.368 0.507 0.71 r
1.152 w
[ ] 0 setdash
3.25 setmiterlimit
5.357 116.812 m
5.434 116.812 L
5.51 116.812 L
5.662 116.812 L
5.967 116.812 L
6.043 116.812 L
6.12 116.812 L
6.272 116.812 L
6.577 116.812 L
6.653 116.812 L
6.729 116.812 L
6.882 116.812 L
7.186 116.812 L
7.263 116.812 L
7.339 116.812 L
7.491 116.812 L
7.796 116.812 L
7.872 116.812 L
7.949 116.812 L
8.101 116.812 L
8.406 116.812 L
8.482 116.812 L
8.558 116.812 L
8.711 116.812 L
9.016 116.812 L
9.092 116.812 L
9.168 116.812 L
9.32 116.812 L
9.625 116.812 L
9.701 116.812 L
9.778 116.812 L
9.93 116.812 L
10.235 116.812 L
10.317 116.812 L
10.4 116.812 L
10.565 116.812 L
10.896 116.812 L
10.978 116.812 L
11.061 116.812 L
11.226 116.812 L
11.557 116.812 L
11.639 116.812 L
11.722 116.812 L
11.887 116.812 L
12.218 116.812 L
12.3 116.812 L
12.383 116.812 L
12.548 116.812 L
12.879 116.812 L
12.961 116.812 L
13.044 116.812 L
13.209 116.812 L
13.54 116.812 L
13.622 116.812 L
13.705 116.812 L
13.87 116.812 L
14.201 116.812 L
14.283 116.812 L
14.366 116.812 L
14.531 116.812 L
14.862 116.812 L
14.944 116.812 L
15.027 116.812 L
15.192 116.812 L
15.523 116.812 L
15.6 116.812 L
15.677 116.812 L
15.831 116.812 L
16.14 116.812 L
16.217 116.812 L
16.294 116.812 L
16.448 116.812 L
16.757 116.812 L
16.834 116.812 L
16.911 116.812 L
17.065 116.812 L
17.374 116.812 L
17.991 116.812 L
18.068 116.812 L
18.146 116.812 L
18.3 116.812 L
18.608 116.812 L
18.686 116.812 L
18.763 116.812 L
18.917 116.812 L
19.226 116.812 L
19.303 116.812 L
19.38 116.812 L
19.534 116.812 L
19.843 116.812 L
20.46 116.812 L
20.535 116.812 L
20.611 116.812 L
20.762 116.812 L
21.065 116.812 L
21.141 116.812 L
21.216 116.812 L
21.367 116.812 L
21.67 116.812 L
21.746 116.812 L
21.821 116.812 L
21.973 116.812 L
22.275 116.812 L
22.88 116.812 L
22.956 116.812 L
23.031 116.812 L
23.183 116.812 L
23.485 116.812 L
23.561 116.812 L
23.636 116.812 L
23.788 116.812 L
24.09 116.812 L
24.166 116.812 L
24.241 116.812 L
24.393 116.812 L
24.695 116.812 L
25.3 116.812 L
25.382 116.812 L
25.464 116.812 L
25.628 116.812 L
25.957 116.812 L
26.039 116.812 L
26.121 116.812 L
26.285 116.812 L
26.613 116.812 L
26.695 116.812 L
26.777 116.812 L
26.941 116.812 L
27.269 116.812 L
27.926 116.812 L
28.008 116.812 L
28.09 116.812 L
28.254 116.812 L
28.582 116.812 L
28.664 116.812 L
28.746 116.812 L
28.91 116.812 L
29.238 116.812 L
29.32 116.812 L
29.402 116.812 L
29.567 116.812 L
29.895 116.812 L
30.551 116.812 L
30.628 116.812 L
30.704 116.812 L
30.857 116.812 L
31.164 116.812 L
31.24 116.812 L
31.317 116.812 L
31.47 116.812 L
31.776 116.812 L
31.853 116.812 L
31.929 116.812 L
32.082 116.812 L
32.389 116.812 L
33.001 116.812 L
33.078 116.812 L
33.154 116.812 L
33.307 116.812 L
33.614 116.812 L
33.69 116.812 L
33.767 116.812 L
33.92 116.812 L
34.226 116.812 L
34.303 116.812 L
34.379 116.812 L
34.533 116.812 L
34.839 116.812 L
35.451 116.812 L
35.534 116.812 L
35.617 116.812 L
35.783 116.811 L
36.115 116.811 L
36.198 116.811 L
36.281 116.811 L
36.447 116.811 L
36.779 116.811 L
36.862 116.811 L
36.945 116.811 L
37.111 116.811 L
37.443 116.811 L
38.107 116.811 L
38.19 116.811 L
38.273 116.811 L
38.439 116.811 L
38.77 116.811 L
38.853 116.811 L
38.936 116.811 L
39.102 116.811 L
39.434 116.81 L
39.517 116.81 L
39.6 116.81 L
39.766 116.81 L
40.098 116.81 L
40.762 116.81 L
40.843 116.81 L
40.925 116.81 L
41.088 116.81 L
41.414 116.809 L
41.495 116.809 L
41.577 116.809 L
41.739 116.809 L
42.065 116.809 L
42.147 116.809 L
42.228 116.809 L
42.391 116.809 L
42.717 116.808 L
43.369 116.808 L
43.45 116.808 L
43.532 116.808 L
43.695 116.808 L
44.02 116.807 L
44.102 116.807 L
44.183 116.807 L
44.346 116.807 L
44.672 116.806 L
44.754 116.806 L
44.835 116.806 L
44.998 116.806 L
45.324 116.805 L
45.976 116.804 L
46.052 116.804 L
46.128 116.804 L
46.28 116.804 L
46.584 116.803 L
46.659 116.803 L
46.735 116.803 L
46.887 116.803 L
47.191 116.802 L
47.267 116.802 L
47.343 116.802 L
47.495 116.801 L
47.799 116.801 L
48.407 116.799 L
48.483 116.799 L
48.559 116.799 L
48.711 116.798 L
49.015 116.797 L
49.091 116.797 L
49.167 116.797 L
49.319 116.796 L
49.623 116.795 L
49.699 116.795 L
49.775 116.795 L
49.927 116.794 L
50.231 116.793 L
50.839 116.791 L
50.921 116.79 L
51.004 116.79 L
51.169 116.789 L
51.498 116.787 L
51.581 116.787 L
51.663 116.787 L
51.828 116.786 L
52.157 116.784 L
52.24 116.783 L
52.322 116.783 L
52.487 116.782 L
52.816 116.78 L
53.476 116.775 L
53.558 116.775 L
53.64 116.774 L
53.805 116.773 L
54.135 116.77 L
54.217 116.77 L
54.3 116.769 L
54.464 116.768 L
54.794 116.765 L
54.876 116.764 L
54.959 116.763 L
55.124 116.762 L
55.453 116.758 L
56.112 116.751 L
56.189 116.75 L
56.266 116.749 L
56.42 116.747 L
56.728 116.743 L
57.343 116.735 L
57.42 116.734 L
57.497 116.733 L
57.651 116.73 L
57.959 116.726 L
58.574 116.715 L
58.651 116.714 L
58.728 116.712 L
58.882 116.709 L
59.189 116.704 L
59.805 116.691 L
59.882 116.689 L
59.959 116.687 L
60.113 116.684 L
60.42 116.676 L
61.036 116.661 L
61.111 116.659 L
61.186 116.657 L
61.337 116.652 L
61.639 116.644 L
62.242 116.625 L
62.318 116.622 L
62.393 116.62 L
62.544 116.615 L
62.846 116.604 L
63.449 116.581 L
63.524 116.578 L
63.6 116.575 L
63.75 116.569 L
64.052 116.556 L
64.655 116.529 L
64.731 116.525 L
64.806 116.521 L
64.957 116.514 L
65.259 116.499 L
65.862 116.466 L
65.944 116.461 L
66.026 116.456 L
66.189 116.446 L
66.517 116.426 L
67.171 116.383 L
67.253 116.377 L
67.335 116.371 L
67.498 116.359 L
67.826 116.335 L
68.48 116.283 L
68.562 116.276 L
68.644 116.269 L
68.808 116.255 L
69.135 116.225 L
69.789 116.162 L
69.871 116.154 L
69.953 116.145 L
70.117 116.128 L
70.444 116.093 L
71.099 116.018 L
71.175 116.008 L
71.251 115.999 L
71.404 115.98 L
71.709 115.941 L
72.32 115.858 L
72.396 115.847 L
72.473 115.836 L
72.625 115.814 L
72.931 115.768 L
73.542 115.67 L
73.618 115.658 L
73.694 115.645 L
73.847 115.619 L
74.152 115.565 L
74.763 115.451 L
75.985 115.196 L
76.067 115.178 L
76.15 115.159 L
76.316 115.12 L
76.647 115.042 L
77.309 114.874 L
77.392 114.852 L
77.474 114.83 L
77.64 114.786 L
77.971 114.694 L
78.633 114.499 L
78.716 114.473 L
78.798 114.448 L
78.964 114.396 L
79.295 114.289 L
79.957 114.063 L
81.281 113.56 L
81.362 113.526 L
81.444 113.493 L
81.606 113.425 L
81.931 113.286 L
82.581 112.993 L
82.662 112.955 L
82.744 112.917 L
82.906 112.839 L
83.231 112.681 L
83.881 112.347 L
83.962 112.304 L
84.043 112.261 L
84.206 112.173 L
84.531 111.993 L
85.181 111.616 L
86.481 110.79 L
86.556 110.739 L
86.632 110.687 L
86.784 110.583 L
87.087 110.371 L
87.693 109.93 L
88.905 108.976 L
88.981 108.913 L
89.057 108.85 L
89.208 108.723 L
89.511 108.463 L
90.118 107.924 L
91.33 106.77 L
91.412 106.688 L
91.494 106.605 L
91.659 106.439 L
91.987 106.099 L
92.645 105.397 L
93.96 103.894 L
94.042 103.796 L
94.124 103.697 L
94.288 103.498 L
94.617 103.093 L
95.274 102.259 L
96.589 100.49 L
96.666 100.382 L
96.743 100.274 L
96.896 100.058 L
97.203 99.618 L
97.817 98.718 L
99.044 96.833 L
101.498 92.735 L
101.581 92.589 L
101.665 92.443 L
101.831 92.149 L
102.163 91.555 L
102.828 90.348 L
104.158 87.857 L
106.818 82.622 L
112.04 71.89 L
112.116 71.735 L
112.192 71.579 L
112.345 71.269 L
112.649 70.65 L
113.258 69.421 L
114.476 67.009 L
114.552 66.86 L
114.628 66.712 L
114.781 66.417 L
115.085 65.83 L
115.694 64.674 L
116.912 62.439 L
116.995 62.292 L
117.077 62.145 L
117.242 61.854 L
117.572 61.277 L
118.233 60.155 L
119.553 58.04 L
119.636 57.914 L
119.718 57.789 L
119.883 57.541 L
120.214 57.055 L
120.874 56.122 L
122.194 54.423 L
122.272 54.331 L
122.349 54.24 L
122.503 54.061 L
122.811 53.712 L
123.427 53.055 L
123.505 52.977 L
123.582 52.9 L
123.736 52.748 L
124.044 52.455 L
124.66 51.913 L
124.737 51.849 L
124.815 51.787 L
124.969 51.664 L
125.277 51.431 L
125.354 51.375 L
125.431 51.32 L
125.585 51.213 L
125.893 51.01 L
125.97 50.962 L
126.048 50.915 L
126.202 50.823 L
126.51 50.652 L
126.587 50.612 L
126.664 50.572 L
126.818 50.497 L
127.126 50.357 L
127.202 50.326 L
127.277 50.295 L
127.429 50.236 L
127.504 50.209 L
127.58 50.182 L
127.731 50.131 L
127.806 50.107 L
127.882 50.084 L
128.033 50.041 L
128.108 50.021 L
128.184 50.002 L
128.335 49.967 L
128.411 49.951 L
128.486 49.936 L
128.562 49.922 L
128.637 49.909 L
128.713 49.897 L
128.788 49.885 L
128.864 49.875 L
128.94 49.866 L
129.015 49.858 L
129.091 49.851 L
129.166 49.845 L
129.242 49.839 L
129.317 49.835 L
129.393 49.832 L
129.468 49.83 L
129.544 49.829 L
129.619 49.828 L
129.695 49.829 L
129.771 49.831 L
129.846 49.834 L
129.922 49.837 L
129.997 49.842 L
130.073 49.848 L
130.148 49.854 L
130.224 49.862 L
130.299 49.871 L
130.375 49.88 L
130.45 49.891 L
130.526 49.903 L
130.602 49.915 L
130.753 49.943 L
130.828 49.959 L
130.904 49.976 L
131.055 50.012 L
131.13 50.031 L
131.206 50.052 L
131.357 50.096 L
131.433 50.119 L
131.508 50.143 L
131.659 50.195 L
131.961 50.31 L
132.043 50.344 L
132.125 50.379 L
132.289 50.453 L
132.617 50.613 L
132.699 50.656 L
132.781 50.701 L
132.945 50.792 L
133.273 50.989 L
133.355 51.04 L
133.437 51.093 L
133.601 51.203 L
133.928 51.434 L
134.584 51.95 L
134.666 52.019 L
134.748 52.089 L
134.912 52.233 L
135.24 52.532 L
135.895 53.181 L
135.977 53.266 L
136.059 53.353 L
136.223 53.529 L
136.551 53.893 L
137.207 54.666 L
137.283 54.76 L
137.36 54.855 L
137.513 55.047 L
137.819 55.441 L
138.43 56.265 L
139.654 58.051 L
139.731 58.168 L
139.807 58.286 L
139.96 58.524 L
140.266 59.008 L
140.878 60.005 L
142.102 62.107 L
142.185 62.254 L
142.267 62.402 L
142.433 62.699 L
142.765 63.3 L
143.428 64.527 L
144.754 67.067 L
147.407 72.394 L
152.615 83.089 L
152.691 83.242 L
152.767 83.394 L
152.919 83.699 L
153.222 84.304 L
153.83 85.505 L
155.044 87.859 L
157.473 92.332 L
157.555 92.477 L
157.638 92.622 L
157.802 92.91 L
158.132 93.482 L
158.79 94.603 L
160.107 96.754 L
160.189 96.884 L
160.272 97.014 L
160.436 97.272 L
160.766 97.782 L
161.424 98.778 L
162.741 100.67 L
162.818 100.777 L
162.895 100.882 L
163.049 101.093 L
163.356 101.508 L
163.971 102.316 L
165.2 103.845 L
165.277 103.937 L
165.354 104.028 L
165.507 104.209 L
165.815 104.566 L
166.43 105.258 L
167.659 106.557 L
167.734 106.633 L
167.81 106.709 L
167.96 106.859 L
168.262 107.154 L
168.864 107.724 L
170.069 108.788 L
170.145 108.851 L
170.22 108.914 L
170.371 109.038 L
170.672 109.283 L
171.275 109.754 L
172.48 110.627 L
172.562 110.683 L
172.643 110.738 L
172.807 110.848 L
173.134 111.063 L
173.788 111.475 L
173.869 111.525 L
173.951 111.574 L
174.115 111.672 L
174.442 111.863 L
175.095 112.228 L
175.177 112.272 L
175.259 112.315 L
175.422 112.402 L
175.749 112.57 L
176.403 112.891 L
177.711 113.474 L
177.787 113.505 L
177.864 113.537 L
178.016 113.599 L
178.321 113.72 L
178.931 113.95 L
179.008 113.978 L
179.084 114.006 L
179.236 114.06 L
179.541 114.166 L
180.151 114.368 L
180.228 114.393 L
180.304 114.417 L
180.457 114.464 L
180.762 114.557 L
181.372 114.733 L
182.592 115.051 L
182.675 115.071 L
182.757 115.09 L
182.923 115.129 L
183.253 115.205 L
183.915 115.347 L
183.997 115.364 L
184.08 115.38 L
184.245 115.414 L
184.576 115.478 L
185.237 115.598 L
185.32 115.613 L
185.403 115.627 L
185.568 115.655 L
185.899 115.709 L
186.56 115.811 L
187.883 115.991 L
187.96 116 L
188.037 116.01 L
188.192 116.028 L
188.5 116.064 L
189.118 116.132 L
189.195 116.14 L
189.272 116.148 L
189.427 116.164 L
189.736 116.194 L
190.353 116.251 L
190.43 116.258 L
190.508 116.265 L
190.662 116.278 L
190.971 116.303 L
191.588 116.351 L
191.666 116.357 L
191.743 116.362 L
191.897 116.373 L
192.206 116.395 L
192.824 116.435 L
192.899 116.439 L
192.975 116.444 L
193.126 116.453 L
193.429 116.471 L
194.034 116.503 L
194.11 116.507 L
194.186 116.511 L
194.337 116.519 L
194.64 116.533 L
195.245 116.56 L
195.321 116.564 L
195.397 116.567 L
195.548 116.573 L
195.851 116.585 L
196.456 116.608 L
196.532 116.61 L
196.608 116.613 L
196.759 116.618 L
197.062 116.628 L
197.667 116.647 L
197.749 116.649 L
197.831 116.651 L
197.996 116.656 L
198.324 116.665 L
198.981 116.681 L
199.063 116.683 L
199.145 116.685 L
199.309 116.689 L
199.638 116.696 L
200.294 116.709 L
200.376 116.711 L
200.459 116.712 L
200.623 116.715 L
200.951 116.721 L
201.608 116.731 L
201.69 116.732 L
201.772 116.734 L
201.936 116.736 L
202.265 116.741 L
202.921 116.749 L
202.998 116.75 L
203.075 116.751 L
203.228 116.753 L
203.534 116.756 L
204.147 116.762 L
204.224 116.763 L
204.3 116.764 L
204.454 116.765 L
204.76 116.768 L
205.373 116.773 L
205.45 116.773 L
205.526 116.774 L
205.68 116.775 L
205.986 116.777 L
206.599 116.781 L
206.676 116.782 L
206.752 116.782 L
206.906 116.783 L
207.212 116.785 L
207.825 116.788 L
207.908 116.788 L
207.991 116.789 L
208.157 116.79 L
208.489 116.791 L
208.572 116.791 L
208.655 116.792 L
208.821 116.793 L
209.153 116.794 L
209.236 116.794 L
209.32 116.794 L
209.486 116.795 L
209.818 116.796 L
210.482 116.798 L
210.565 116.799 L
210.648 116.799 L
210.814 116.799 L
211.146 116.8 L
211.229 116.8 L
211.312 116.801 L
211.478 116.801 L
211.81 116.802 L
211.893 116.802 L
211.976 116.802 L
212.143 116.802 L
212.475 116.803 L
213.139 116.804 L
213.22 116.804 L
213.302 116.805 L
213.465 116.805 L
213.791 116.805 L
213.873 116.805 L
213.954 116.806 L
214.117 116.806 L
214.443 116.806 L
214.525 116.806 L
214.606 116.806 L
214.769 116.807 L
215.095 116.807 L
215.747 116.808 L
215.829 116.808 L
215.91 116.808 L
216.073 116.808 L
216.4 116.808 L
216.481 116.808 L
216.563 116.809 L
216.726 116.809 L
217.052 116.809 L
217.133 116.809 L
217.215 116.809 L
217.378 116.809 L
217.704 116.809 L
218.356 116.81 L
218.432 116.81 L
218.508 116.81 L
218.66 116.81 L
218.964 116.81 L
219.04 116.81 L
219.116 116.81 L
219.268 116.81 L
219.573 116.81 L
219.649 116.81 L
219.725 116.81 L
219.877 116.81 L
220.181 116.811 L
220.789 116.811 L
220.865 116.811 L
220.941 116.811 L
221.093 116.811 L
221.398 116.811 L
221.474 116.811 L
221.55 116.811 L
221.702 116.811 L
222.006 116.811 L
222.082 116.811 L
222.158 116.811 L
222.31 116.811 L
222.614 116.811 L
223.223 116.811 L
223.305 116.811 L
223.387 116.811 L
223.552 116.812 L
223.882 116.812 L
223.965 116.812 L
224.047 116.812 L
224.212 116.812 L
224.542 116.812 L
224.624 116.812 L
224.707 116.812 L
224.872 116.812 L
225.201 116.812 L
225.861 116.812 L
225.943 116.812 L
226.026 116.812 L
226.191 116.812 L
226.521 116.812 L
226.603 116.812 L
226.686 116.812 L
226.85 116.812 L
227.18 116.812 L
227.263 116.812 L
227.345 116.812 L
227.51 116.812 L
227.84 116.812 L
228.499 116.812 L
228.576 116.812 L
228.653 116.812 L
228.807 116.812 L
229.115 116.812 L
229.192 116.812 L
229.269 116.812 L
229.423 116.812 L
229.731 116.812 L
229.808 116.812 L
229.885 116.812 L
230.039 116.812 L
230.347 116.812 L
230.963 116.812 L
231.04 116.812 L
231.117 116.812 L
231.271 116.812 L
231.579 116.812 L
231.656 116.812 L
231.732 116.812 L
231.886 116.812 L
232.194 116.812 L
232.271 116.812 L
232.348 116.812 L
232.502 116.812 L
232.81 116.812 L
233.426 116.812 L
233.501 116.812 L
233.577 116.812 L
233.728 116.812 L
234.03 116.812 L
234.105 116.812 L
234.181 116.812 L
234.332 116.812 L
234.633 116.812 L
234.709 116.812 L
234.784 116.812 L
234.935 116.812 L
235.237 116.812 L
235.841 116.812 L
235.916 116.812 L
235.992 116.812 L
236.143 116.812 L
236.445 116.812 L
236.52 116.812 L
236.595 116.812 L
236.746 116.812 L
237.048 116.812 L
237.124 116.812 L
237.199 116.812 L
237.35 116.812 L
237.652 116.812 L
238.256 116.812 L
238.337 116.812 L
238.419 116.812 L
238.583 116.812 L
238.911 116.812 L
238.992 116.812 L
239.074 116.812 L
239.238 116.812 L
239.566 116.812 L
239.647 116.812 L
239.729 116.812 L
239.893 116.812 L
240.221 116.812 L
240.302 116.812 L
240.384 116.812 L
240.548 116.812 L
240.876 116.812 L
240.957 116.812 L
241.039 116.812 L
241.203 116.812 L
241.531 116.812 L
241.612 116.812 L
241.694 116.812 L
241.858 116.812 L
242.186 116.812 L
242.267 116.812 L
242.349 116.812 L
242.513 116.812 L
242.841 116.812 L
242.922 116.812 L
243.004 116.812 L
243.168 116.812 L
243.496 116.812 L
243.572 116.812 L
243.648 116.812 L
243.801 116.812 L
244.107 116.812 L
244.183 116.812 L
244.26 116.812 L
244.412 116.812 L
244.718 116.812 L
244.794 116.812 L
244.871 116.812 L
245.024 116.812 L
245.329 116.812 L
245.406 116.812 L
245.482 116.812 L
245.635 116.812 L
245.94 116.812 L
246.017 116.812 L
246.093 116.812 L
246.246 116.812 L
246.551 116.812 L
246.628 116.812 L
246.704 116.812 L
246.857 116.812 L
247.163 116.812 L
247.239 116.812 L
247.315 116.812 L
247.468 116.812 L
247.774 116.812 L
247.85 116.812 L
247.927 116.812 L
248.079 116.812 L
248.385 116.812 L
248.47 116.812 L
248.556 116.812 L
248.726 116.812 L
249.067 116.812 L
249.153 116.812 L
249.238 116.812 L
249.408 116.812 L
249.75 116.812 L
249.835 116.812 L
249.92 116.812 L
250.091 116.812 L
250.432 116.812 L
250.517 116.812 L
250.602 116.812 L
250.773 116.812 L
251.114 116.812 L
251.199 116.812 L
251.285 116.812 L
251.455 116.812 L
251.796 116.812 L
251.882 116.812 L
251.967 116.812 L
252.138 116.812 L
252.479 116.812 L
252.564 116.812 L
252.649 116.812 L
252.82 116.812 L
253.161 116.812 L
253.246 116.812 L
253.332 116.812 L
253.502 116.812 L
253.587 116.812 L
253.673 116.812 L
253.758 116.812 L
253.843 116.812 L
s
0.881 0.611 0.142 r
[ ] 0 setdash
5.357 116.812 m
5.434 116.812 L
5.51 116.812 L
5.586 116.812 L
5.662 116.812 L
5.738 116.812 L
5.815 116.812 L
5.891 116.812 L
5.967 116.812 L
6.043 116.812 L
6.12 116.812 L
6.196 116.812 L
6.272 116.812 L
6.348 116.812 L
6.424 116.812 L
6.501 116.812 L
6.577 116.812 L
6.653 116.812 L
6.729 116.812 L
6.805 116.812 L
6.882 116.812 L
6.958 116.812 L
7.034 116.812 L
7.11 116.812 L
7.186 116.812 L
7.263 116.812 L
7.339 116.812 L
7.415 116.812 L
7.491 116.812 L
7.568 116.812 L
7.644 116.812 L
7.72 116.812 L
7.796 116.812 L
7.872 116.812 L
7.949 116.812 L
8.025 116.812 L
8.101 116.812 L
8.177 116.812 L
8.253 116.812 L
8.33 116.812 L
8.406 116.812 L
8.482 116.812 L
8.558 116.812 L
8.634 116.812 L
8.711 116.812 L
8.787 116.812 L
8.863 116.812 L
8.939 116.812 L
9.016 116.812 L
9.092 116.812 L
9.168 116.812 L
9.244 116.812 L
9.32 116.812 L
9.397 116.812 L
9.473 116.812 L
9.549 116.812 L
9.625 116.812 L
9.701 116.812 L
9.778 116.812 L
9.854 116.812 L
9.93 116.812 L
10.006 116.812 L
10.082 116.812 L
10.159 116.812 L
10.235 116.812 L
10.317 116.812 L
10.4 116.812 L
10.483 116.812 L
10.565 116.812 L
10.648 116.812 L
10.731 116.812 L
10.813 116.812 L
10.896 116.812 L
10.978 116.812 L
11.061 116.812 L
11.144 116.812 L
11.226 116.812 L
11.309 116.812 L
11.392 116.812 L
11.474 116.812 L
11.557 116.812 L
11.639 116.812 L
11.722 116.812 L
11.805 116.812 L
11.887 116.812 L
11.97 116.812 L
12.053 116.812 L
12.135 116.812 L
12.218 116.812 L
12.3 116.812 L
12.383 116.812 L
12.466 116.812 L
12.548 116.812 L
12.631 116.812 L
12.713 116.812 L
12.796 116.812 L
12.879 116.812 L
12.961 116.812 L
13.044 116.812 L
13.127 116.812 L
13.209 116.812 L
13.292 116.812 L
13.374 116.812 L
13.457 116.812 L
13.54 116.812 L
13.622 116.812 L
13.705 116.812 L
13.788 116.812 L
13.87 116.812 L
13.953 116.812 L
14.035 116.812 L
14.118 116.812 L
14.201 116.812 L
14.283 116.812 L
14.366 116.812 L
14.449 116.812 L
14.531 116.812 L
14.614 116.812 L
14.696 116.812 L
14.779 116.812 L
14.862 116.812 L
14.944 116.812 L
15.027 116.812 L
15.109 116.812 L
15.192 116.812 L
15.275 116.812 L
15.357 116.812 L
15.44 116.812 L
15.523 116.812 L
15.6 116.812 L
15.677 116.812 L
15.754 116.812 L
15.831 116.812 L
15.908 116.812 L
15.985 116.812 L
16.063 116.812 L
16.14 116.812 L
16.217 116.812 L
16.294 116.812 L
16.371 116.812 L
16.448 116.812 L
16.525 116.812 L
16.603 116.812 L
16.68 116.812 L
16.757 116.812 L
16.834 116.812 L
16.911 116.812 L
16.988 116.812 L
17.065 116.812 L
17.143 116.812 L
17.22 116.812 L
17.297 116.812 L
17.374 116.812 L
17.451 116.812 L
17.528 116.812 L
17.605 116.812 L
17.683 116.812 L
17.76 116.812 L
17.837 116.812 L
17.914 116.812 L
17.991 116.812 L
18.068 116.812 L
18.146 116.812 L
18.223 116.812 L
18.3 116.812 L
18.377 116.812 L
18.454 116.812 L
18.531 116.812 L
18.608 116.812 L
18.686 116.812 L
18.763 116.812 L
18.84 116.812 L
18.917 116.812 L
18.994 116.812 L
19.071 116.812 L
19.148 116.812 L
19.226 116.812 L
19.303 116.812 L
19.38 116.812 L
19.457 116.812 L
19.534 116.812 L
19.611 116.812 L
19.688 116.812 L
19.766 116.812 L
19.843 116.812 L
19.92 116.812 L
19.997 116.812 L
20.074 116.812 L
20.151 116.812 L
20.228 116.812 L
20.306 116.812 L
20.383 116.812 L
20.46 116.812 L
20.535 116.812 L
20.611 116.812 L
20.687 116.812 L
20.762 116.812 L
20.838 116.812 L
20.914 116.812 L
20.989 116.812 L
21.065 116.812 L
21.141 116.812 L
21.216 116.812 L
21.292 116.812 L
21.367 116.812 L
21.443 116.812 L
21.519 116.812 L
21.594 116.812 L
21.67 116.812 L
21.746 116.812 L
21.821 116.812 L
21.897 116.812 L
21.973 116.812 L
22.048 116.812 L
22.124 116.812 L
22.199 116.812 L
22.275 116.812 L
22.351 116.812 L
22.426 116.812 L
22.502 116.812 L
22.578 116.812 L
22.653 116.812 L
22.729 116.812 L
22.804 116.812 L
22.88 116.812 L
22.956 116.812 L
23.031 116.812 L
23.107 116.812 L
23.183 116.812 L
23.258 116.812 L
23.334 116.812 L
23.41 116.812 L
23.485 116.812 L
23.561 116.812 L
23.636 116.812 L
23.712 116.812 L
23.788 116.812 L
23.863 116.812 L
23.939 116.812 L
24.015 116.812 L
24.09 116.812 L
24.166 116.812 L
24.241 116.812 L
24.317 116.812 L
24.393 116.812 L
24.468 116.812 L
24.544 116.812 L
24.62 116.812 L
24.695 116.812 L
24.771 116.812 L
24.847 116.812 L
24.922 116.812 L
24.998 116.812 L
25.073 116.812 L
25.149 116.812 L
25.3 116.812 L
25.382 116.812 L
25.464 116.812 L
25.546 116.812 L
25.628 116.812 L
25.711 116.812 L
25.793 116.812 L
25.875 116.812 L
25.957 116.812 L
26.039 116.812 L
26.121 116.812 L
26.203 116.812 L
26.285 116.812 L
26.367 116.812 L
26.449 116.812 L
26.531 116.812 L
26.613 116.812 L
26.695 116.812 L
26.777 116.812 L
26.859 116.812 L
26.941 116.812 L
27.023 116.812 L
27.105 116.812 L
27.187 116.812 L
27.269 116.812 L
27.351 116.812 L
27.433 116.812 L
27.515 116.812 L
27.597 116.812 L
27.68 116.812 L
27.762 116.812 L
27.844 116.812 L
27.926 116.812 L
28.008 116.812 L
28.09 116.812 L
28.172 116.812 L
28.254 116.812 L
28.336 116.812 L
28.418 116.812 L
28.5 116.812 L
28.582 116.812 L
28.664 116.812 L
28.746 116.812 L
28.828 116.812 L
28.91 116.812 L
28.992 116.812 L
29.074 116.812 L
29.156 116.812 L
29.238 116.812 L
29.32 116.812 L
29.402 116.812 L
29.484 116.812 L
29.567 116.812 L
29.649 116.812 L
29.731 116.812 L
29.813 116.812 L
29.895 116.812 L
29.977 116.812 L
30.059 116.812 L
30.141 116.812 L
30.223 116.812 L
30.305 116.812 L
30.387 116.812 L
30.469 116.812 L
30.551 116.812 L
30.628 116.812 L
30.704 116.812 L
30.781 116.812 L
30.857 116.812 L
30.934 116.812 L
31.01 116.812 L
31.087 116.812 L
31.164 116.812 L
31.24 116.812 L
31.317 116.812 L
31.393 116.812 L
31.47 116.812 L
31.546 116.813 L
31.623 116.813 L
31.7 116.813 L
31.776 116.813 L
31.853 116.813 L
31.929 116.813 L
32.006 116.813 L
32.082 116.813 L
32.159 116.813 L
32.235 116.812 L
32.312 116.812 L
32.389 116.812 L
32.465 116.812 L
32.542 116.812 L
32.618 116.812 L
32.695 116.812 L
32.771 116.812 L
32.848 116.812 L
32.925 116.812 L
33.001 116.812 L
33.078 116.812 L
33.154 116.812 L
33.231 116.812 L
33.307 116.812 L
33.384 116.812 L
33.461 116.812 L
33.537 116.812 L
33.614 116.812 L
33.69 116.812 L
33.767 116.812 L
33.843 116.812 L
33.92 116.813 L
33.997 116.813 L
34.073 116.813 L
34.15 116.813 L
34.226 116.813 L
34.303 116.813 L
34.379 116.813 L
34.456 116.813 L
34.533 116.813 L
34.609 116.813 L
34.686 116.813 L
34.762 116.813 L
34.839 116.813 L
34.915 116.812 L
34.992 116.812 L
35.068 116.812 L
35.145 116.812 L
35.222 116.812 L
35.298 116.812 L
35.375 116.811 L
35.451 116.811 L
35.534 116.811 L
35.617 116.811 L
35.7 116.811 L
35.783 116.811 L
35.866 116.811 L
35.949 116.811 L
36.032 116.812 L
36.115 116.812 L
36.198 116.812 L
36.281 116.812 L
36.364 116.812 L
36.447 116.813 L
36.53 116.813 L
36.613 116.813 L
36.696 116.813 L
36.779 116.813 L
36.862 116.814 L
36.945 116.814 L
37.028 116.814 L
37.111 116.814 L
37.194 116.813 L
37.277 116.813 L
37.36 116.813 L
37.443 116.813 L
37.526 116.812 L
37.609 116.812 L
37.692 116.812 L
37.775 116.812 L
37.858 116.811 L
37.941 116.811 L
38.024 116.811 L
38.107 116.811 L
38.19 116.81 L
38.273 116.81 L
38.356 116.81 L
38.439 116.81 L
38.521 116.811 L
38.604 116.811 L
38.687 116.811 L
38.77 116.811 L
38.853 116.812 L
38.936 116.812 L
39.019 116.813 L
39.102 116.813 L
39.185 116.814 L
39.268 116.814 L
39.351 116.814 L
39.434 116.815 L
39.517 116.815 L
39.6 116.815 L
39.683 116.815 L
39.766 116.815 L
39.849 116.814 L
39.932 116.814 L
40.015 116.814 L
40.098 116.813 L
40.181 116.813 L
40.264 116.812 L
40.347 116.812 L
40.43 116.811 L
40.513 116.811 L
40.596 116.81 L
40.679 116.81 L
40.762 116.809 L
40.843 116.809 L
40.925 116.809 L
41.006 116.809 L
41.088 116.809 L
41.169 116.809 L
41.251 116.809 L
41.332 116.81 L
41.414 116.81 L
41.495 116.811 L
41.577 116.812 L
41.739 116.813 L
41.821 116.814 L
41.902 116.815 L
41.984 116.815 L
42.065 116.816 L
42.147 116.816 L
42.228 116.817 L
42.31 116.817 L
42.391 116.817 L
42.473 116.817 L
42.554 116.817 L
42.636 116.816 L
42.717 116.816 L
42.798 116.815 L
42.88 116.814 L
42.961 116.813 L
43.043 116.812 L
43.124 116.811 L
43.206 116.81 L
43.287 116.809 L
43.369 116.808 L
43.45 116.807 L
43.532 116.807 L
43.613 116.806 L
43.695 116.806 L
43.776 116.806 L
43.858 116.806 L
43.939 116.806 L
44.02 116.806 L
44.102 116.807 L
44.183 116.808 L
44.265 116.809 L
44.346 116.81 L
44.428 116.812 L
44.509 116.813 L
44.672 116.816 L
44.754 116.817 L
44.835 116.818 L
44.917 116.819 L
44.998 116.82 L
45.079 116.821 L
45.161 116.821 L
45.242 116.821 L
45.324 116.821 L
45.405 116.821 L
45.487 116.82 L
45.568 116.819 L
45.65 116.818 L
45.731 116.816 L
45.813 116.814 L
45.976 116.811 L
46.052 116.809 L
46.128 116.807 L
46.204 116.806 L
46.28 116.804 L
46.356 116.803 L
46.432 116.802 L
46.508 116.801 L
46.584 116.8 L
46.659 116.8 L
46.735 116.8 L
46.811 116.8 L
46.887 116.801 L
46.963 116.802 L
47.039 116.803 L
47.115 116.805 L
47.191 116.807 L
47.267 116.809 L
47.343 116.811 L
47.495 116.816 L
47.571 116.818 L
47.647 116.82 L
47.723 116.823 L
47.799 116.824 L
47.875 116.826 L
47.951 116.827 L
48.027 116.828 L
48.103 116.829 L
48.179 116.829 L
48.255 116.829 L
48.331 116.828 L
48.407 116.827 L
48.483 116.826 L
48.559 116.824 L
48.635 116.821 L
48.711 116.819 L
48.787 116.816 L
48.863 116.813 L
49.015 116.806 L
49.091 116.803 L
49.167 116.8 L
49.243 116.797 L
49.319 116.795 L
49.395 116.793 L
49.471 116.791 L
49.547 116.79 L
49.623 116.789 L
49.699 116.789 L
49.775 116.789 L
49.851 116.79 L
49.927 116.792 L
50.003 116.794 L
50.079 116.797 L
50.155 116.8 L
50.231 116.803 L
50.307 116.807 L
50.383 116.811 L
50.535 116.82 L
50.611 116.824 L
50.687 116.828 L
50.763 116.832 L
50.839 116.835 L
50.921 116.839 L
51.004 116.841 L
51.086 116.843 L
51.169 116.844 L
51.251 116.844 L
51.333 116.843 L
51.416 116.842 L
51.498 116.839 L
51.581 116.836 L
51.663 116.831 L
51.745 116.827 L
51.828 116.821 L
51.91 116.815 L
51.992 116.809 L
52.157 116.797 L
52.24 116.791 L
52.322 116.785 L
52.404 116.78 L
52.487 116.776 L
52.569 116.773 L
52.652 116.77 L
52.734 116.769 L
52.816 116.769 L
52.899 116.77 L
52.981 116.772 L
53.064 116.775 L
53.146 116.779 L
53.228 116.785 L
53.311 116.791 L
53.393 116.798 L
53.476 116.806 L
53.558 116.814 L
53.64 116.823 L
53.723 116.831 L
53.805 116.839 L
53.888 116.847 L
53.97 116.854 L
54.052 116.86 L
54.135 116.865 L
54.217 116.869 L
54.3 116.871 L
54.382 116.872 L
54.464 116.871 L
54.547 116.869 L
54.629 116.866 L
54.712 116.861 L
54.794 116.854 L
54.876 116.846 L
54.959 116.837 L
55.041 116.827 L
55.124 116.817 L
55.206 116.806 L
55.288 116.794 L
55.453 116.772 L
55.536 116.762 L
55.618 116.753 L
55.7 116.746 L
55.783 116.739 L
55.865 116.734 L
55.948 116.731 L
56.03 116.73 L
56.112 116.731 L
56.189 116.734 L
56.266 116.739 L
56.343 116.745 L
56.42 116.753 L
56.497 116.762 L
56.574 116.773 L
56.651 116.785 L
56.728 116.798 L
56.805 116.811 L
56.882 116.825 L
57.036 116.853 L
57.112 116.866 L
57.189 116.879 L
57.266 116.89 L
57.343 116.901 L
57.42 116.909 L
57.497 116.916 L
57.574 116.921 L
57.651 116.924 L
57.728 116.924 L
57.805 116.923 L
57.882 116.918 L
57.959 116.912 L
58.036 116.903 L
58.113 116.893 L
58.189 116.88 L
58.266 116.865 L
58.343 116.849 L
58.42 116.832 L
58.574 116.796 L
58.651 116.777 L
58.728 116.758 L
58.805 116.74 L
58.882 116.723 L
58.959 116.707 L
59.036 116.693 L
59.113 116.681 L
59.189 116.672 L
59.266 116.664 L
59.343 116.66 L
59.42 116.658 L
59.497 116.66 L
59.574 116.664 L
59.651 116.672 L
59.728 116.682 L
59.805 116.696 L
59.882 116.712 L
59.959 116.73 L
60.036 116.75 L
60.113 116.773 L
60.189 116.796 L
60.266 116.821 L
60.42 116.871 L
60.497 116.895 L
60.574 116.919 L
60.651 116.941 L
60.728 116.962 L
60.805 116.98 L
60.882 116.995 L
60.959 117.007 L
61.036 117.016 L
61.111 117.021 L
61.186 117.023 L
61.262 117.021 L
61.337 117.015 L
61.413 117.005 L
61.488 116.991 L
61.564 116.974 L
61.639 116.954 L
61.714 116.93 L
61.79 116.904 L
61.941 116.845 L
62.016 116.814 L
62.091 116.781 L
62.242 116.716 L
62.318 116.684 L
62.393 116.654 L
62.468 116.626 L
62.544 116.6 L
62.619 116.577 L
62.695 116.558 L
62.77 116.543 L
62.846 116.532 L
62.921 116.525 L
62.996 116.524 L
63.072 116.527 L
63.147 116.535 L
63.223 116.548 L
63.298 116.566 L
63.373 116.589 L
63.449 116.615 L
63.524 116.646 L
63.6 116.681 L
63.75 116.758 L
63.826 116.8 L
63.901 116.843 L
64.052 116.931 L
64.127 116.973 L
64.203 117.014 L
64.278 117.053 L
64.354 117.089 L
64.429 117.121 L
64.505 117.148 L
64.58 117.171 L
64.655 117.189 L
64.731 117.201 L
64.806 117.207 L
64.882 117.207 L
64.957 117.2 L
65.032 117.187 L
65.108 117.167 L
65.183 117.142 L
65.259 117.11 L
65.334 117.073 L
65.409 117.031 L
65.485 116.984 L
65.56 116.934 L
65.636 116.88 L
65.711 116.824 L
65.862 116.709 L
65.944 116.646 L
66.026 116.584 L
66.107 116.526 L
66.189 116.471 L
66.271 116.42 L
66.353 116.376 L
66.435 116.338 L
66.517 116.308 L
66.598 116.287 L
66.68 116.274 L
66.762 116.271 L
66.844 116.277 L
66.926 116.293 L
67.007 116.319 L
67.089 116.354 L
67.171 116.398 L
67.253 116.451 L
67.335 116.511 L
67.417 116.579 L
67.498 116.652 L
67.58 116.729 L
67.662 116.81 L
67.826 116.977 L
67.907 117.06 L
67.989 117.141 L
68.071 117.219 L
68.153 117.291 L
68.235 117.356 L
68.317 117.414 L
68.398 117.464 L
68.48 117.503 L
68.562 117.532 L
68.644 117.549 L
68.726 117.554 L
68.808 117.547 L
68.889 117.527 L
68.971 117.495 L
69.053 117.45 L
69.135 117.394 L
69.217 117.327 L
69.298 117.25 L
69.38 117.163 L
69.462 117.069 L
69.544 116.968 L
69.626 116.862 L
69.789 116.642 L
69.871 116.531 L
69.953 116.422 L
70.035 116.317 L
70.117 116.217 L
70.198 116.124 L
70.28 116.04 L
70.362 115.967 L
70.444 115.905 L
70.526 115.856 L
70.608 115.821 L
70.689 115.801 L
70.771 115.796 L
70.853 115.808 L
70.935 115.835 L
71.017 115.878 L
71.099 115.937 L
71.175 116.005 L
71.251 116.086 L
71.328 116.178 L
71.404 116.281 L
71.48 116.393 L
71.557 116.514 L
71.709 116.772 L
71.786 116.908 L
71.862 117.045 L
72.015 117.316 L
72.091 117.448 L
72.167 117.574 L
72.244 117.692 L
72.32 117.802 L
72.396 117.901 L
72.473 117.988 L
72.549 118.062 L
72.625 118.122 L
72.702 118.166 L
72.778 118.193 L
72.855 118.204 L
72.931 118.197 L
73.007 118.172 L
73.084 118.13 L
73.16 118.07 L
73.236 117.993 L
73.313 117.9 L
73.389 117.791 L
73.465 117.667 L
73.542 117.53 L
73.618 117.382 L
73.694 117.223 L
73.847 116.882 L
73.923 116.704 L
74 116.524 L
74.152 116.164 L
74.229 115.99 L
74.305 115.822 L
74.381 115.662 L
74.458 115.513 L
74.534 115.376 L
74.61 115.254 L
74.687 115.148 L
74.763 115.059 L
74.84 114.99 L
74.916 114.941 L
74.992 114.913 L
75.069 114.906 L
75.145 114.922 L
75.221 114.96 L
75.298 115.021 L
75.374 115.104 L
75.45 115.208 L
75.527 115.333 L
75.603 115.478 L
75.679 115.641 L
75.756 115.82 L
75.832 116.015 L
75.985 116.441 L
76.067 116.687 L
76.15 116.941 L
76.316 117.455 L
76.398 117.71 L
76.481 117.958 L
76.647 118.422 L
76.73 118.631 L
76.812 118.822 L
76.895 118.99 L
76.978 119.134 L
77.061 119.25 L
77.143 119.339 L
77.226 119.396 L
77.309 119.422 L
77.392 119.416 L
77.474 119.376 L
77.557 119.303 L
77.64 119.198 L
77.723 119.06 L
77.805 118.891 L
77.888 118.693 L
77.971 118.468 L
78.054 118.217 L
78.136 117.944 L
78.302 117.342 L
78.633 116.016 L
78.716 115.681 L
78.798 115.353 L
78.881 115.036 L
78.964 114.733 L
79.047 114.449 L
79.129 114.188 L
79.212 113.952 L
79.295 113.745 L
79.378 113.57 L
79.46 113.43 L
79.543 113.326 L
79.626 113.261 L
79.709 113.235 L
79.792 113.25 L
79.874 113.307 L
79.957 113.405 L
80.04 113.544 L
80.123 113.722 L
80.205 113.94 L
80.288 114.194 L
80.371 114.483 L
80.454 114.803 L
80.619 115.527 L
80.702 115.923 L
80.785 116.337 L
80.95 117.2 L
81.281 118.937 L
81.362 119.339 L
81.444 119.722 L
81.525 120.081 L
81.606 120.414 L
81.687 120.716 L
81.769 120.984 L
81.85 121.214 L
81.931 121.403 L
82.012 121.549 L
82.094 121.65 L
82.175 121.704 L
82.256 121.709 L
82.337 121.666 L
82.419 121.574 L
82.5 121.432 L
82.581 121.242 L
82.662 121.005 L
82.744 120.722 L
82.825 120.396 L
82.906 120.029 L
82.987 119.624 L
83.068 119.184 L
83.231 118.217 L
83.312 117.697 L
83.393 117.16 L
83.556 116.051 L
83.881 113.845 L
83.962 113.326 L
84.043 112.83 L
84.125 112.363 L
84.206 111.928 L
84.287 111.531 L
84.368 111.176 L
84.45 110.865 L
84.531 110.604 L
84.612 110.395 L
84.693 110.239 L
84.775 110.141 L
84.856 110.1 L
84.937 110.119 L
85.018 110.198 L
85.1 110.337 L
85.181 110.535 L
85.262 110.793 L
85.343 111.107 L
85.425 111.477 L
85.506 111.899 L
85.587 112.371 L
85.668 112.89 L
85.831 114.05 L
85.912 114.683 L
85.993 115.344 L
86.156 116.732 L
86.481 119.607 L
86.556 120.265 L
86.632 120.908 L
86.784 122.131 L
86.86 122.702 L
86.935 123.239 L
87.011 123.74 L
87.087 124.198 L
87.163 124.612 L
87.238 124.978 L
87.314 125.292 L
87.39 125.552 L
87.466 125.755 L
87.541 125.9 L
87.617 125.984 L
87.693 126.007 L
87.769 125.968 L
87.845 125.866 L
87.92 125.701 L
87.996 125.474 L
88.072 125.185 L
88.148 124.836 L
88.223 124.429 L
88.299 123.965 L
88.375 123.447 L
88.451 122.877 L
88.602 121.598 L
88.678 120.896 L
88.754 120.157 L
88.905 118.587 L
88.981 117.765 L
89.057 116.926 L
89.208 115.216 L
89.284 114.355 L
89.36 113.497 L
89.511 111.814 L
89.587 110.999 L
89.663 110.209 L
89.739 109.449 L
89.815 108.723 L
89.89 108.038 L
89.966 107.397 L
90.042 106.804 L
90.118 106.264 L
90.193 105.78 L
90.269 105.356 L
90.345 104.996 L
90.421 104.701 L
90.496 104.474 L
90.572 104.317 L
90.648 104.232 L
90.724 104.22 L
90.8 104.282 L
90.875 104.417 L
90.951 104.626 L
91.027 104.909 L
91.103 105.265 L
91.178 105.691 L
91.254 106.186 L
91.33 106.749 L
91.412 107.432 L
91.494 108.187 L
91.659 109.897 L
91.741 110.841 L
91.823 111.837 L
91.987 113.962 L
92.07 115.078 L
92.152 116.221 L
92.316 118.558 L
92.645 123.233 L
92.727 124.359 L
92.809 125.453 L
92.891 126.509 L
92.973 127.519 L
93.056 128.478 L
93.138 129.378 L
93.22 130.213 L
93.302 130.979 L
93.384 131.67 L
93.467 132.282 L
93.549 132.809 L
93.631 133.248 L
93.713 133.596 L
93.795 133.85 L
93.877 134.007 L
93.96 134.067 L
94.042 134.027 L
94.124 133.887 L
94.206 133.648 L
94.288 133.309 L
94.371 132.872 L
94.453 132.339 L
94.535 131.711 L
94.617 130.992 L
94.699 130.185 L
94.781 129.293 L
94.864 128.322 L
94.946 127.274 L
95.028 126.157 L
95.11 124.974 L
95.274 122.439 L
95.357 121.099 L
95.439 119.72 L
95.603 116.872 L
95.932 111.024 L
96.014 109.574 L
96.096 108.145 L
96.261 105.375 L
96.343 104.049 L
96.425 102.772 L
96.589 100.392 L
96.666 99.371 L
96.743 98.414 L
96.819 97.526 L
96.896 96.711 L
96.973 95.973 L
97.05 95.314 L
97.126 94.739 L
97.203 94.251 L
97.28 93.851 L
97.356 93.542 L
97.433 93.327 L
97.51 93.205 L
97.586 93.179 L
97.663 93.248 L
97.74 93.414 L
97.817 93.675 L
97.893 94.032 L
97.97 94.484 L
98.047 95.029 L
98.123 95.665 L
98.2 96.391 L
98.277 97.205 L
98.354 98.102 L
98.43 99.082 L
98.507 100.139 L
98.584 101.271 L
98.737 103.742 L
98.814 105.072 L
98.89 106.46 L
99.044 109.387 L
99.121 110.915 L
99.197 112.481 L
99.351 115.698 L
99.657 122.319 L
99.734 123.979 L
99.811 125.629 L
99.964 128.876 L
100.271 135 L
100.348 136.422 L
100.425 137.791 L
100.501 139.1 L
100.578 140.347 L
100.655 141.526 L
100.731 142.634 L
100.808 143.665 L
100.885 144.618 L
100.961 145.488 L
101.038 146.272 L
101.115 146.968 L
101.192 147.573 L
101.268 148.084 L
101.345 148.5 L
101.422 148.82 L
101.498 149.041 L
101.581 149.169 L
101.665 149.18 L
101.748 149.073 L
101.831 148.849 L
101.914 148.507 L
101.997 148.05 L
102.08 147.477 L
102.163 146.791 L
102.246 145.994 L
102.33 145.089 L
102.413 144.077 L
102.496 142.963 L
102.579 141.75 L
102.662 140.442 L
102.828 137.557 L
102.911 135.989 L
102.994 134.345 L
103.161 130.847 L
103.493 123.175 L
104.158 106.505 L
104.241 104.422 L
104.324 102.359 L
104.49 98.322 L
104.574 96.36 L
104.657 94.442 L
104.823 90.764 L
104.906 89.014 L
104.989 87.331 L
105.155 84.181 L
105.239 82.724 L
105.322 81.35 L
105.488 78.869 L
105.571 77.769 L
105.654 76.766 L
105.737 75.863 L
105.82 75.062 L
105.903 74.366 L
105.987 73.776 L
106.07 73.294 L
106.153 72.921 L
106.236 72.657 L
106.319 72.504 L
106.402 72.462 L
106.485 72.53 L
106.568 72.709 L
106.651 72.998 L
106.735 73.396 L
106.818 73.903 L
106.899 74.503 L
106.981 75.206 L
107.062 76.007 L
107.144 76.907 L
107.226 77.902 L
107.307 78.99 L
107.47 81.435 L
107.552 82.786 L
107.634 84.219 L
107.797 87.317 L
107.878 88.975 L
107.96 90.7 L
108.123 94.34 L
108.205 96.247 L
108.286 98.205 L
108.45 102.262 L
108.776 110.816 L
109.429 128.718 L
109.511 130.947 L
109.592 133.16 L
109.755 137.523 L
110.082 145.894 L
110.163 147.892 L
110.245 149.845 L
110.408 153.606 L
110.735 160.463 L
110.816 162.024 L
110.898 163.519 L
111.061 166.304 L
111.143 167.59 L
111.224 168.803 L
111.387 171.004 L
111.469 171.989 L
111.551 172.896 L
111.632 173.724 L
111.714 174.473 L
111.795 175.141 L
111.877 175.728 L
111.959 176.234 L
112.04 176.658 L
112.116 176.981 L
112.192 177.233 L
112.269 177.414 L
112.345 177.525 L
112.421 177.565 L
112.497 177.536 L
112.573 177.438 L
112.649 177.271 L
112.725 177.035 L
112.801 176.733 L
112.878 176.364 L
112.954 175.929 L
113.03 175.43 L
113.106 174.867 L
113.182 174.242 L
113.258 173.555 L
113.334 172.808 L
113.41 172.002 L
113.563 170.218 L
113.639 169.243 L
113.715 168.214 L
113.867 166.002 L
113.943 164.822 L
114.019 163.595 L
114.172 161.005 L
114.476 155.329 L
114.552 153.816 L
114.628 152.27 L
114.781 149.082 L
115.085 142.376 L
115.694 128.029 L
116.912 98.449 L
116.995 96.511 L
117.077 94.59 L
117.242 90.805 L
117.572 83.493 L
117.655 81.725 L
117.738 79.983 L
117.903 76.582 L
118.233 70.128 L
118.315 68.591 L
118.398 67.087 L
118.563 64.175 L
118.893 58.753 L
118.976 57.483 L
119.058 56.248 L
119.223 53.882 L
119.553 49.571 L
119.636 48.581 L
119.718 47.626 L
119.883 45.82 L
119.966 44.968 L
120.049 44.151 L
120.214 42.619 L
120.296 41.903 L
120.379 41.22 L
120.544 39.952 L
120.626 39.366 L
120.709 38.812 L
120.874 37.797 L
120.956 37.335 L
121.039 36.902 L
121.122 36.499 L
121.204 36.125 L
121.287 35.779 L
121.369 35.461 L
121.452 35.17 L
121.534 34.906 L
121.617 34.667 L
121.699 34.455 L
121.782 34.267 L
121.864 34.103 L
121.947 33.964 L
122.029 33.847 L
122.112 33.753 L
122.194 33.681 L
122.272 33.633 L
122.349 33.603 L
122.426 33.591 L
122.503 33.596 L
122.58 33.617 L
122.657 33.655 L
122.734 33.708 L
122.811 33.776 L
122.888 33.859 L
122.965 33.956 L
123.042 34.067 L
123.119 34.191 L
123.196 34.327 L
123.273 34.476 L
123.427 34.807 L
123.505 34.989 L
123.582 35.181 L
123.736 35.594 L
124.044 36.523 L
124.121 36.774 L
124.198 37.031 L
124.352 37.564 L
124.66 38.689 L
124.737 38.98 L
124.815 39.275 L
124.969 39.873 L
125.277 41.09 L
125.893 43.539 L
125.97 43.841 L
126.048 44.14 L
126.202 44.73 L
126.51 45.874 L
126.587 46.151 L
126.664 46.424 L
126.818 46.956 L
127.126 47.961 L
127.202 48.195 L
127.277 48.422 L
127.429 48.86 L
127.504 49.07 L
127.58 49.274 L
127.731 49.663 L
127.806 49.848 L
127.882 50.026 L
128.033 50.362 L
128.108 50.519 L
128.184 50.669 L
128.335 50.947 L
128.411 51.076 L
128.486 51.196 L
128.562 51.309 L
128.637 51.415 L
128.713 51.513 L
128.788 51.603 L
128.864 51.685 L
128.94 51.759 L
129.015 51.826 L
129.091 51.884 L
129.166 51.935 L
129.242 51.977 L
129.317 52.011 L
129.393 52.038 L
129.468 52.056 L
129.544 52.066 L
129.619 52.068 L
129.695 52.062 L
129.771 52.048 L
129.846 52.025 L
129.922 51.995 L
129.997 51.957 L
130.073 51.91 L
130.148 51.856 L
130.224 51.793 L
130.299 51.723 L
130.375 51.644 L
130.45 51.558 L
130.526 51.464 L
130.602 51.362 L
130.753 51.136 L
130.828 51.012 L
130.904 50.88 L
131.055 50.594 L
131.13 50.44 L
131.206 50.279 L
131.357 49.937 L
131.433 49.755 L
131.508 49.567 L
131.659 49.172 L
131.961 48.308 L
132.043 48.057 L
132.125 47.801 L
132.289 47.269 L
132.617 46.139 L
133.273 43.675 L
133.355 43.353 L
133.437 43.03 L
133.601 42.379 L
133.928 41.072 L
134.584 38.525 L
134.666 38.221 L
134.748 37.922 L
134.912 37.342 L
134.994 37.061 L
135.076 36.786 L
135.24 36.261 L
135.322 36.01 L
135.404 35.769 L
135.568 35.315 L
135.65 35.104 L
135.731 34.904 L
135.895 34.541 L
135.977 34.378 L
136.059 34.229 L
136.141 34.093 L
136.223 33.973 L
136.305 33.868 L
136.387 33.779 L
136.469 33.706 L
136.551 33.651 L
136.633 33.613 L
136.715 33.593 L
136.797 33.593 L
136.879 33.612 L
136.961 33.651 L
137.043 33.71 L
137.125 33.792 L
137.207 33.894 L
137.283 34.011 L
137.36 34.147 L
137.436 34.304 L
137.513 34.482 L
137.589 34.682 L
137.666 34.903 L
137.742 35.147 L
137.819 35.414 L
137.895 35.704 L
137.972 36.017 L
138.048 36.355 L
138.125 36.717 L
138.201 37.105 L
138.277 37.517 L
138.43 38.42 L
138.507 38.911 L
138.583 39.429 L
138.736 40.546 L
138.813 41.147 L
138.889 41.775 L
139.042 43.117 L
139.119 43.831 L
139.195 44.575 L
139.348 46.149 L
139.654 49.655 L
139.731 50.606 L
139.807 51.588 L
139.96 53.641 L
140.266 58.109 L
140.343 59.3 L
140.419 60.521 L
140.572 63.051 L
140.878 68.454 L
140.954 69.874 L
141.031 71.321 L
141.184 74.295 L
141.49 80.543 L
142.102 94.086 L
142.185 96.011 L
142.267 97.953 L
142.433 101.884 L
142.765 109.892 L
143.428 126.121 L
143.511 128.133 L
143.594 130.136 L
143.759 134.103 L
144.091 141.822 L
144.174 143.694 L
144.257 145.54 L
144.423 149.139 L
144.754 155.91 L
144.837 157.5 L
144.92 159.046 L
145.086 161.992 L
145.169 163.388 L
145.252 164.731 L
145.417 167.246 L
145.5 168.414 L
145.583 169.52 L
145.666 170.563 L
145.749 171.54 L
145.832 172.449 L
145.915 173.289 L
145.998 174.058 L
146.081 174.755 L
146.163 175.378 L
146.246 175.925 L
146.329 176.396 L
146.412 176.789 L
146.495 177.102 L
146.578 177.336 L
146.661 177.489 L
146.744 177.56 L
146.827 177.549 L
146.909 177.455 L
146.992 177.277 L
147.075 177.015 L
147.158 176.67 L
147.241 176.24 L
147.324 175.726 L
147.407 175.129 L
147.488 174.462 L
147.57 173.714 L
147.651 172.887 L
147.732 171.982 L
147.814 170.999 L
147.895 169.939 L
148.058 167.594 L
148.139 166.312 L
148.221 164.959 L
148.383 162.046 L
148.709 155.452 L
148.79 153.657 L
148.872 151.808 L
149.034 147.963 L
149.36 139.766 L
150.011 122.131 L
150.092 119.886 L
150.174 117.646 L
150.336 113.196 L
150.662 104.542 L
150.743 102.454 L
150.825 100.406 L
150.988 96.442 L
151.313 89.164 L
151.394 87.503 L
151.476 85.912 L
151.557 84.396 L
151.639 82.957 L
151.72 81.599 L
151.801 80.326 L
151.964 78.041 L
152.045 77.037 L
152.127 76.126 L
152.208 75.313 L
152.29 74.598 L
152.371 73.984 L
152.452 73.473 L
152.534 73.064 L
152.615 72.76 L
152.691 72.571 L
152.767 72.475 L
152.843 72.471 L
152.919 72.559 L
152.995 72.739 L
153.071 73.012 L
153.146 73.375 L
153.222 73.83 L
153.298 74.374 L
153.374 75.007 L
153.45 75.727 L
153.526 76.533 L
153.602 77.423 L
153.678 78.394 L
153.83 80.575 L
153.905 81.778 L
153.981 83.054 L
154.133 85.81 L
154.209 87.284 L
154.285 88.817 L
154.437 92.047 L
154.513 93.735 L
154.589 95.468 L
154.74 99.048 L
155.044 106.542 L
155.12 108.458 L
155.196 110.382 L
155.348 114.233 L
155.651 121.81 L
155.727 123.65 L
155.803 125.458 L
155.955 128.962 L
156.259 135.389 L
156.334 136.85 L
156.41 138.245 L
156.486 139.57 L
156.562 140.821 L
156.638 141.996 L
156.714 143.09 L
156.79 144.101 L
156.866 145.027 L
156.942 145.865 L
157.018 146.612 L
157.094 147.267 L
157.169 147.828 L
157.245 148.294 L
157.321 148.663 L
157.397 148.935 L
157.473 149.11 L
157.555 149.188 L
157.638 149.151 L
157.72 148.999 L
157.802 148.733 L
157.885 148.355 L
157.967 147.865 L
158.049 147.268 L
158.132 146.564 L
158.214 145.757 L
158.296 144.85 L
158.378 143.847 L
158.461 142.752 L
158.543 141.569 L
158.625 140.304 L
158.79 137.546 L
158.872 136.064 L
158.955 134.522 L
159.119 131.282 L
159.449 124.364 L
159.531 122.584 L
159.613 120.799 L
159.778 117.24 L
160.107 110.372 L
160.189 108.748 L
160.272 107.175 L
160.436 104.207 L
160.519 102.824 L
160.601 101.516 L
160.766 99.145 L
160.848 98.092 L
160.93 97.133 L
161.013 96.271 L
161.095 95.511 L
161.177 94.854 L
161.26 94.303 L
161.342 93.86 L
161.424 93.527 L
161.506 93.303 L
161.589 93.191 L
161.671 93.189 L
161.753 93.297 L
161.836 93.514 L
161.918 93.838 L
162 94.266 L
162.083 94.797 L
162.165 95.428 L
162.247 96.153 L
162.33 96.97 L
162.412 97.874 L
162.494 98.86 L
162.577 99.922 L
162.741 102.253 L
162.818 103.424 L
162.895 104.641 L
163.049 107.189 L
163.356 112.576 L
163.433 113.948 L
163.51 115.317 L
163.663 118.025 L
163.971 123.146 L
164.047 124.331 L
164.124 125.468 L
164.201 126.551 L
164.278 127.576 L
164.355 128.539 L
164.432 129.434 L
164.509 130.258 L
164.585 131.009 L
164.662 131.682 L
164.739 132.275 L
164.816 132.787 L
164.893 133.214 L
164.97 133.555 L
165.046 133.811 L
165.123 133.979 L
165.2 134.059 L
165.277 134.053 L
165.354 133.96 L
165.431 133.782 L
165.507 133.52 L
165.584 133.177 L
165.661 132.754 L
165.738 132.255 L
165.815 131.682 L
165.892 131.04 L
165.968 130.331 L
166.122 128.734 L
166.199 127.854 L
166.276 126.926 L
166.43 124.951 L
166.506 123.914 L
166.583 122.852 L
166.737 120.677 L
167.044 116.287 L
167.121 115.217 L
167.198 114.169 L
167.352 112.163 L
167.428 111.215 L
167.505 110.312 L
167.659 108.654 L
167.734 107.923 L
167.81 107.25 L
167.885 106.639 L
167.96 106.091 L
168.036 105.611 L
168.111 105.199 L
168.186 104.858 L
168.262 104.588 L
168.337 104.392 L
168.412 104.268 L
168.488 104.217 L
168.563 104.239 L
168.638 104.333 L
168.714 104.498 L
168.789 104.732 L
168.864 105.033 L
168.94 105.398 L
169.015 105.826 L
169.09 106.312 L
169.166 106.854 L
169.241 107.448 L
169.316 108.089 L
169.467 109.497 L
169.542 110.255 L
169.617 111.042 L
169.768 112.684 L
170.069 116.09 L
170.145 116.937 L
170.22 117.771 L
170.371 119.382 L
170.446 120.149 L
170.521 120.884 L
170.672 122.242 L
170.747 122.857 L
170.823 123.425 L
170.898 123.942 L
170.973 124.406 L
171.049 124.814 L
171.124 125.165 L
171.199 125.456 L
171.275 125.686 L
171.35 125.855 L
171.425 125.962 L
171.501 126.006 L
171.576 125.989 L
171.651 125.911 L
171.727 125.774 L
171.802 125.578 L
171.877 125.326 L
171.953 125.021 L
172.028 124.664 L
172.103 124.259 L
172.179 123.809 L
172.254 123.317 L
172.329 122.788 L
172.48 121.635 L
172.562 120.965 L
172.643 120.272 L
172.807 118.84 L
172.889 118.114 L
172.97 117.388 L
173.134 115.964 L
173.216 115.277 L
173.297 114.614 L
173.379 113.981 L
173.461 113.382 L
173.542 112.823 L
173.624 112.307 L
173.706 111.838 L
173.788 111.421 L
173.869 111.057 L
173.951 110.749 L
174.033 110.499 L
174.115 110.31 L
174.196 110.18 L
174.278 110.111 L
174.36 110.103 L
174.442 110.155 L
174.523 110.266 L
174.605 110.433 L
174.687 110.655 L
174.769 110.928 L
174.85 111.251 L
174.932 111.618 L
175.014 112.027 L
175.095 112.472 L
175.177 112.95 L
175.259 113.455 L
175.422 114.527 L
175.504 115.083 L
175.586 115.646 L
175.749 116.769 L
175.831 117.32 L
175.913 117.855 L
175.995 118.372 L
176.076 118.864 L
176.158 119.328 L
176.24 119.76 L
176.322 120.155 L
176.403 120.511 L
176.485 120.824 L
176.567 121.093 L
176.648 121.315 L
176.73 121.489 L
176.812 121.613 L
176.894 121.688 L
176.975 121.713 L
177.057 121.688 L
177.139 121.616 L
177.221 121.496 L
177.302 121.331 L
177.384 121.124 L
177.466 120.877 L
177.548 120.593 L
177.629 120.275 L
177.711 119.928 L
177.787 119.581 L
177.864 119.215 L
178.016 118.441 L
178.092 118.04 L
178.169 117.635 L
178.321 116.827 L
178.397 116.432 L
178.474 116.047 L
178.55 115.676 L
178.626 115.322 L
178.702 114.988 L
178.779 114.677 L
178.855 114.391 L
178.931 114.133 L
179.008 113.905 L
179.084 113.709 L
179.16 113.545 L
179.236 113.415 L
179.313 113.32 L
179.389 113.26 L
179.465 113.235 L
179.541 113.245 L
179.618 113.29 L
179.694 113.367 L
179.77 113.477 L
179.846 113.617 L
179.923 113.785 L
179.999 113.981 L
180.075 114.2 L
180.151 114.441 L
180.228 114.702 L
180.304 114.978 L
180.457 115.567 L
180.533 115.874 L
180.609 116.184 L
180.762 116.804 L
180.838 117.106 L
180.914 117.401 L
180.99 117.683 L
181.067 117.952 L
181.143 118.204 L
181.219 118.437 L
181.295 118.649 L
181.372 118.838 L
181.448 119.002 L
181.524 119.141 L
181.6 119.253 L
181.677 119.337 L
181.753 119.393 L
181.829 119.421 L
181.905 119.42 L
181.982 119.393 L
182.058 119.338 L
182.134 119.258 L
182.211 119.153 L
182.287 119.025 L
182.363 118.875 L
182.439 118.707 L
182.516 118.521 L
182.592 118.32 L
182.675 118.089 L
182.757 117.846 L
182.923 117.338 L
183.005 117.081 L
183.088 116.825 L
183.253 116.333 L
183.336 116.103 L
183.419 115.886 L
183.501 115.687 L
183.584 115.506 L
183.667 115.347 L
183.749 115.21 L
183.832 115.098 L
183.915 115.011 L
183.997 114.949 L
184.08 114.915 L
184.163 114.906 L
184.245 114.923 L
184.328 114.966 L
184.411 115.033 L
184.493 115.122 L
184.576 115.233 L
184.659 115.363 L
184.741 115.51 L
184.824 115.672 L
184.907 115.846 L
184.989 116.029 L
185.072 116.22 L
185.237 116.61 L
185.32 116.804 L
185.403 116.995 L
185.485 117.178 L
185.568 117.352 L
185.651 117.515 L
185.733 117.664 L
185.816 117.797 L
185.899 117.914 L
185.981 118.012 L
186.064 118.09 L
186.147 118.149 L
186.229 118.186 L
186.312 118.203 L
186.395 118.199 L
186.477 118.175 L
186.56 118.132 L
186.643 118.07 L
186.725 117.991 L
186.808 117.896 L
186.891 117.788 L
186.973 117.667 L
187.056 117.536 L
187.221 117.254 L
187.304 117.107 L
187.387 116.958 L
187.552 116.667 L
187.635 116.529 L
187.718 116.398 L
187.8 116.276 L
187.883 116.166 L
187.96 116.074 L
188.037 115.994 L
188.114 115.927 L
188.192 115.873 L
188.269 115.834 L
188.346 115.808 L
188.423 115.797 L
188.5 115.8 L
188.578 115.816 L
188.655 115.846 L
188.732 115.889 L
188.809 115.943 L
188.886 116.009 L
188.964 116.084 L
189.041 116.167 L
189.118 116.258 L
189.195 116.354 L
189.272 116.455 L
189.427 116.663 L
189.504 116.768 L
189.581 116.871 L
189.736 117.065 L
189.813 117.155 L
189.89 117.237 L
189.967 117.312 L
190.044 117.378 L
190.122 117.434 L
190.199 117.48 L
190.276 117.515 L
190.353 117.539 L
190.43 117.552 L
190.508 117.553 L
190.585 117.544 L
190.662 117.525 L
190.739 117.495 L
190.816 117.456 L
190.894 117.408 L
190.971 117.353 L
191.048 117.29 L
191.125 117.222 L
191.28 117.074 L
191.588 116.761 L
191.666 116.686 L
191.743 116.615 L
191.82 116.548 L
191.897 116.487 L
191.974 116.433 L
192.052 116.386 L
192.129 116.346 L
192.206 116.314 L
192.283 116.291 L
192.36 116.277 L
192.438 116.271 L
192.515 116.274 L
192.592 116.285 L
192.669 116.304 L
192.746 116.33 L
192.824 116.364 L
192.899 116.403 L
192.975 116.447 L
193.051 116.496 L
193.126 116.549 L
193.202 116.604 L
193.278 116.662 L
193.429 116.778 L
193.505 116.836 L
193.58 116.891 L
193.656 116.945 L
193.732 116.994 L
193.807 117.04 L
193.883 117.082 L
193.959 117.118 L
194.034 117.148 L
194.11 117.172 L
194.186 117.19 L
194.262 117.202 L
194.337 117.207 L
194.413 117.206 L
194.489 117.199 L
194.564 117.185 L
194.64 117.166 L
194.716 117.142 L
194.791 117.113 L
194.867 117.08 L
194.943 117.043 L
195.018 117.003 L
195.094 116.962 L
195.245 116.875 L
195.321 116.831 L
195.397 116.788 L
195.472 116.746 L
195.548 116.707 L
195.624 116.67 L
195.7 116.636 L
195.775 116.607 L
195.851 116.581 L
195.927 116.56 L
196.002 116.543 L
196.078 116.532 L
196.154 116.525 L
196.229 116.524 L
196.305 116.527 L
196.381 116.535 L
196.456 116.548 L
196.532 116.564 L
196.608 116.585 L
196.683 116.609 L
196.759 116.636 L
196.835 116.665 L
196.91 116.696 L
197.062 116.761 L
197.138 116.793 L
197.213 116.826 L
197.289 116.857 L
197.365 116.887 L
197.44 116.915 L
197.516 116.94 L
197.592 116.962 L
197.667 116.982 L
197.749 116.998 L
197.831 117.011 L
197.914 117.019 L
197.996 117.023 L
198.078 117.022 L
198.16 117.017 L
198.242 117.007 L
198.324 116.994 L
198.406 116.977 L
198.488 116.958 L
198.57 116.935 L
198.652 116.911 L
198.735 116.886 L
198.817 116.859 L
198.981 116.806 L
199.063 116.78 L
199.145 116.756 L
199.227 116.734 L
199.309 116.714 L
199.391 116.697 L
199.473 116.682 L
199.555 116.671 L
199.638 116.664 L
199.72 116.659 L
199.802 116.659 L
199.884 116.661 L
199.966 116.667 L
200.048 116.676 L
200.13 116.688 L
200.212 116.702 L
200.294 116.718 L
200.376 116.736 L
200.459 116.755 L
200.623 116.795 L
200.705 116.814 L
200.787 116.834 L
200.869 116.852 L
200.951 116.869 L
201.033 116.884 L
201.115 116.897 L
201.197 116.907 L
201.279 116.915 L
201.362 116.921 L
201.444 116.924 L
201.526 116.924 L
201.608 116.922 L
201.69 116.917 L
201.772 116.91 L
201.854 116.901 L
201.936 116.89 L
202.018 116.878 L
202.1 116.864 L
202.265 116.835 L
202.347 116.82 L
202.429 116.805 L
202.511 116.791 L
202.593 116.778 L
202.675 116.766 L
202.757 116.755 L
202.839 116.747 L
202.921 116.739 L
202.998 116.735 L
203.075 116.732 L
203.151 116.73 L
203.228 116.731 L
203.304 116.733 L
203.381 116.737 L
203.458 116.742 L
203.534 116.749 L
203.611 116.756 L
203.688 116.765 L
203.841 116.785 L
203.917 116.795 L
203.994 116.805 L
204.147 116.826 L
204.224 116.835 L
204.3 116.844 L
204.377 116.851 L
204.454 116.858 L
204.53 116.863 L
204.607 116.867 L
204.684 116.87 L
204.76 116.872 L
204.837 116.872 L
204.913 116.871 L
204.99 116.868 L
205.067 116.865 L
205.143 116.86 L
205.22 116.855 L
205.297 116.848 L
205.373 116.841 L
205.45 116.834 L
205.526 116.826 L
205.68 116.811 L
205.756 116.803 L
205.833 116.796 L
205.909 116.79 L
205.986 116.784 L
206.063 116.779 L
206.139 116.775 L
206.216 116.772 L
206.293 116.77 L
206.369 116.769 L
206.446 116.769 L
206.522 116.77 L
206.599 116.772 L
206.676 116.774 L
206.752 116.778 L
206.829 116.782 L
206.906 116.787 L
206.982 116.792 L
207.059 116.798 L
207.212 116.809 L
207.289 116.815 L
207.365 116.821 L
207.442 116.826 L
207.518 116.83 L
207.595 116.834 L
207.672 116.838 L
207.748 116.841 L
207.825 116.843 L
207.908 116.844 L
207.991 116.844 L
208.074 116.844 L
208.157 116.842 L
208.24 116.84 L
208.323 116.837 L
208.406 116.833 L
208.489 116.829 L
208.572 116.825 L
208.655 116.82 L
208.738 116.816 L
208.821 116.811 L
208.904 116.807 L
208.987 116.803 L
209.07 116.799 L
209.153 116.796 L
209.236 116.793 L
209.32 116.791 L
209.403 116.79 L
209.486 116.789 L
209.569 116.789 L
209.652 116.79 L
209.735 116.791 L
209.818 116.793 L
209.901 116.796 L
209.984 116.798 L
210.067 116.802 L
210.15 116.805 L
210.233 116.808 L
210.316 116.812 L
210.399 116.815 L
210.482 116.818 L
210.565 116.821 L
210.648 116.824 L
210.731 116.826 L
210.814 116.827 L
210.897 116.829 L
210.98 116.829 L
211.063 116.829 L
211.146 116.829 L
211.229 116.828 L
211.312 116.826 L
211.395 116.825 L
211.478 116.823 L
211.561 116.82 L
211.644 116.818 L
211.81 116.813 L
211.893 116.81 L
211.976 116.808 L
212.059 116.806 L
212.143 116.804 L
212.226 116.802 L
212.309 116.801 L
212.392 116.8 L
212.475 116.8 L
212.558 116.8 L
212.641 116.8 L
212.724 116.801 L
212.807 116.802 L
212.89 116.803 L
212.973 116.805 L
213.056 116.807 L
213.139 116.809 L
213.22 116.811 L
213.302 116.812 L
213.383 116.814 L
213.465 116.816 L
213.546 116.817 L
213.628 116.819 L
213.709 116.82 L
213.791 116.821 L
213.873 116.821 L
213.954 116.821 L
214.036 116.821 L
214.117 116.821 L
214.199 116.82 L
214.28 116.819 L
214.362 116.818 L
214.443 116.817 L
214.525 116.816 L
214.606 116.814 L
214.688 116.813 L
214.769 116.812 L
214.851 116.81 L
214.932 116.809 L
215.014 116.808 L
215.095 116.807 L
215.177 116.806 L
215.258 116.806 L
215.34 116.806 L
215.421 116.806 L
215.503 116.806 L
215.584 116.806 L
215.666 116.807 L
215.747 116.807 L
215.829 116.808 L
215.91 116.809 L
216.073 116.811 L
216.155 116.812 L
216.236 116.813 L
216.318 116.814 L
216.4 116.815 L
216.481 116.816 L
216.563 116.816 L
216.644 116.817 L
216.726 116.817 L
216.807 116.817 L
216.889 116.817 L
216.97 116.817 L
217.052 116.816 L
217.133 116.816 L
217.215 116.815 L
217.296 116.815 L
217.378 116.814 L
217.459 116.813 L
217.541 116.812 L
217.622 116.812 L
217.704 116.811 L
217.785 116.81 L
217.867 116.81 L
217.948 116.809 L
218.03 116.809 L
218.111 116.809 L
218.193 116.809 L
218.274 116.809 L
218.356 116.809 L
218.432 116.809 L
218.508 116.81 L
218.584 116.81 L
218.66 116.81 L
218.736 116.811 L
218.812 116.811 L
218.964 116.813 L
219.04 116.813 L
219.116 116.813 L
219.192 116.814 L
219.268 116.814 L
219.344 116.814 L
219.421 116.815 L
219.497 116.815 L
219.573 116.815 L
219.649 116.815 L
219.725 116.815 L
219.801 116.814 L
219.877 116.814 L
219.953 116.814 L
220.029 116.814 L
220.181 116.813 L
220.257 116.812 L
220.333 116.812 L
220.409 116.812 L
220.485 116.811 L
220.561 116.811 L
220.637 116.811 L
220.713 116.811 L
220.789 116.81 L
220.865 116.81 L
220.941 116.81 L
221.017 116.81 L
221.093 116.811 L
221.169 116.811 L
221.245 116.811 L
221.322 116.811 L
221.398 116.811 L
221.474 116.812 L
221.55 116.812 L
221.626 116.812 L
221.702 116.813 L
221.778 116.813 L
221.854 116.813 L
221.93 116.813 L
222.006 116.813 L
222.082 116.814 L
222.158 116.814 L
222.234 116.814 L
222.31 116.814 L
222.386 116.814 L
222.462 116.813 L
222.538 116.813 L
222.614 116.813 L
222.69 116.813 L
222.766 116.813 L
222.918 116.812 L
222.994 116.812 L
223.07 116.812 L
223.147 116.812 L
223.223 116.812 L
223.305 116.811 L
223.387 116.811 L
223.47 116.811 L
223.552 116.811 L
223.635 116.811 L
223.717 116.811 L
223.8 116.811 L
223.882 116.812 L
223.965 116.812 L
224.047 116.812 L
224.13 116.812 L
224.212 116.812 L
224.294 116.812 L
224.377 116.813 L
224.459 116.813 L
224.542 116.813 L
224.624 116.813 L
224.707 116.813 L
224.789 116.813 L
224.872 116.813 L
224.954 116.813 L
225.037 116.813 L
225.119 116.813 L
225.201 116.813 L
225.284 116.813 L
225.366 116.812 L
225.449 116.812 L
225.531 116.812 L
225.614 116.812 L
225.696 116.812 L
225.779 116.812 L
225.861 116.812 L
225.943 116.812 L
226.026 116.812 L
226.108 116.812 L
226.191 116.812 L
226.273 116.812 L
226.356 116.812 L
226.438 116.812 L
226.521 116.812 L
226.603 116.812 L
226.686 116.812 L
226.768 116.812 L
226.85 116.812 L
226.933 116.812 L
227.015 116.812 L
227.098 116.813 L
227.18 116.813 L
227.263 116.813 L
227.345 116.813 L
227.428 116.813 L
227.51 116.813 L
227.593 116.813 L
227.675 116.813 L
227.757 116.812 L
227.84 116.812 L
227.922 116.812 L
228.005 116.812 L
228.087 116.812 L
228.17 116.812 L
228.252 116.812 L
228.335 116.812 L
228.417 116.812 L
228.499 116.812 L
228.576 116.812 L
228.653 116.812 L
228.73 116.812 L
228.807 116.812 L
228.884 116.812 L
228.961 116.812 L
229.038 116.812 L
229.115 116.812 L
229.192 116.812 L
229.269 116.812 L
229.346 116.812 L
229.423 116.812 L
229.5 116.812 L
229.577 116.812 L
229.654 116.812 L
229.731 116.812 L
229.808 116.812 L
229.885 116.812 L
229.962 116.812 L
230.039 116.812 L
230.116 116.812 L
230.193 116.812 L
230.27 116.812 L
230.347 116.812 L
230.424 116.812 L
230.501 116.812 L
230.578 116.812 L
230.655 116.812 L
230.732 116.812 L
230.809 116.812 L
230.886 116.812 L
230.963 116.812 L
231.04 116.812 L
231.117 116.812 L
231.194 116.812 L
231.271 116.812 L
231.348 116.812 L
231.425 116.812 L
231.502 116.812 L
231.579 116.812 L
231.656 116.812 L
231.732 116.812 L
231.809 116.812 L
231.886 116.812 L
231.963 116.812 L
232.04 116.812 L
232.117 116.812 L
232.194 116.812 L
232.271 116.812 L
232.348 116.812 L
232.425 116.812 L
232.502 116.812 L
232.579 116.812 L
232.656 116.812 L
232.81 116.812 L
232.887 116.812 L
232.964 116.812 L
233.041 116.812 L
233.118 116.812 L
233.195 116.812 L
233.272 116.812 L
233.349 116.812 L
233.426 116.812 L
233.501 116.812 L
233.577 116.812 L
233.652 116.812 L
233.728 116.812 L
233.803 116.812 L
233.879 116.812 L
234.03 116.812 L
234.105 116.812 L
234.181 116.812 L
234.256 116.812 L
234.332 116.812 L
234.407 116.812 L
234.482 116.812 L
234.558 116.812 L
234.633 116.812 L
234.709 116.812 L
234.784 116.812 L
234.86 116.812 L
234.935 116.812 L
235.011 116.812 L
235.086 116.812 L
235.237 116.812 L
235.313 116.812 L
235.388 116.812 L
235.463 116.812 L
235.539 116.812 L
235.614 116.812 L
235.69 116.812 L
235.765 116.812 L
235.841 116.812 L
235.916 116.812 L
235.992 116.812 L
236.067 116.812 L
236.143 116.812 L
236.218 116.812 L
236.294 116.812 L
236.369 116.812 L
236.445 116.812 L
236.52 116.812 L
236.595 116.812 L
236.671 116.812 L
236.746 116.812 L
236.822 116.812 L
236.897 116.812 L
236.973 116.812 L
237.048 116.812 L
237.124 116.812 L
237.199 116.812 L
237.275 116.812 L
237.35 116.812 L
237.426 116.812 L
237.501 116.812 L
237.576 116.812 L
237.652 116.812 L
237.727 116.812 L
237.803 116.812 L
237.878 116.812 L
237.954 116.812 L
238.029 116.812 L
238.105 116.812 L
238.18 116.812 L
238.256 116.812 L
238.337 116.812 L
238.419 116.812 L
238.501 116.812 L
238.583 116.812 L
238.665 116.812 L
238.747 116.812 L
238.829 116.812 L
238.911 116.812 L
238.992 116.812 L
239.074 116.812 L
239.156 116.812 L
239.238 116.812 L
239.32 116.812 L
239.402 116.812 L
239.484 116.812 L
239.566 116.812 L
239.647 116.812 L
239.729 116.812 L
239.811 116.812 L
239.893 116.812 L
239.975 116.812 L
240.057 116.812 L
240.139 116.812 L
240.221 116.812 L
240.302 116.812 L
240.384 116.812 L
240.466 116.812 L
240.548 116.812 L
240.63 116.812 L
240.712 116.812 L
240.794 116.812 L
240.876 116.812 L
240.957 116.812 L
241.039 116.812 L
241.121 116.812 L
241.203 116.812 L
241.285 116.812 L
241.367 116.812 L
241.449 116.812 L
241.531 116.812 L
241.612 116.812 L
241.694 116.812 L
241.776 116.812 L
241.858 116.812 L
241.94 116.812 L
242.022 116.812 L
242.104 116.812 L
242.186 116.812 L
242.267 116.812 L
242.349 116.812 L
242.431 116.812 L
242.513 116.812 L
242.595 116.812 L
242.677 116.812 L
242.759 116.812 L
242.841 116.812 L
242.922 116.812 L
243.004 116.812 L
243.086 116.812 L
243.168 116.812 L
243.25 116.812 L
243.332 116.812 L
243.414 116.812 L
243.496 116.812 L
243.572 116.812 L
243.648 116.812 L
243.725 116.812 L
243.801 116.812 L
243.878 116.812 L
243.954 116.812 L
244.03 116.812 L
244.107 116.812 L
244.183 116.812 L
244.26 116.812 L
244.336 116.812 L
244.412 116.812 L
244.489 116.812 L
244.565 116.812 L
244.642 116.812 L
244.718 116.812 L
244.794 116.812 L
244.871 116.812 L
244.947 116.812 L
245.024 116.812 L
245.1 116.812 L
245.176 116.812 L
245.253 116.812 L
245.329 116.812 L
245.406 116.812 L
245.482 116.812 L
245.558 116.812 L
245.635 116.812 L
245.711 116.812 L
245.787 116.812 L
245.864 116.812 L
245.94 116.812 L
246.017 116.812 L
246.093 116.812 L
246.169 116.812 L
246.246 116.812 L
246.322 116.812 L
246.399 116.812 L
246.475 116.812 L
246.551 116.812 L
246.628 116.812 L
246.704 116.812 L
246.781 116.812 L
246.857 116.812 L
246.933 116.812 L
247.01 116.812 L
247.086 116.812 L
247.163 116.812 L
247.239 116.812 L
247.315 116.812 L
247.392 116.812 L
247.468 116.812 L
247.545 116.812 L
247.621 116.812 L
247.697 116.812 L
247.774 116.812 L
247.85 116.812 L
247.927 116.812 L
248.003 116.812 L
248.079 116.812 L
248.156 116.812 L
248.232 116.812 L
248.309 116.812 L
248.385 116.812 L
248.47 116.812 L
248.556 116.812 L
248.641 116.812 L
248.726 116.812 L
248.811 116.812 L
248.897 116.812 L
248.982 116.812 L
249.067 116.812 L
249.153 116.812 L
249.238 116.812 L
249.323 116.812 L
249.408 116.812 L
249.494 116.812 L
249.579 116.812 L
249.664 116.812 L
249.75 116.812 L
249.835 116.812 L
249.92 116.812 L
250.005 116.812 L
250.091 116.812 L
250.176 116.812 L
250.261 116.812 L
250.347 116.812 L
250.432 116.812 L
250.517 116.812 L
250.602 116.812 L
250.688 116.812 L
250.773 116.812 L
250.858 116.812 L
250.944 116.812 L
251.029 116.812 L
251.114 116.812 L
251.199 116.812 L
251.285 116.812 L
251.37 116.812 L
251.455 116.812 L
251.541 116.812 L
251.626 116.812 L
251.711 116.812 L
251.796 116.812 L
251.882 116.812 L
251.967 116.812 L
252.052 116.812 L
252.138 116.812 L
252.223 116.812 L
252.308 116.812 L
252.393 116.812 L
252.479 116.812 L
252.564 116.812 L
252.649 116.812 L
252.735 116.812 L
252.82 116.812 L
252.905 116.812 L
252.99 116.812 L
253.076 116.812 L
253.161 116.812 L
253.246 116.812 L
253.332 116.812 L
253.417 116.812 L
253.502 116.812 L
253.587 116.812 L
253.673 116.812 L
253.758 116.812 L
253.843 116.812 L
s
P
0 g
0.36 w
[ ] 0 setdash
3.25 setmiterlimit
p
0 setlinecap
5.357 116.812 m
5.357 113.89 L
s
P
p
np -1 117 m
-1 128 L
12 128 L
12 117 L
cp
clip np
p
1 w
0 g
0 g
[ ] 0 setdash
2 setlinecap
0 setlinejoin
10 setmiterlimit
[1 0 0 1 1.42e-14 118.972 ]  concat
1 w
[ ] 0 setdash
p
np -2 -2.972 m
-2 10.028 L
13 10.028 L
13 -2.972 L
cp
clip np
%%IncludeResource: font MathematicaSans
%%IncludeFont: MathematicaSans
6.48 /MathematicaSans Msf
0 g
p
[1 0 0 1 -0.5 5.672 ]  concat
1 w
[ ] 0 setdash
4.125 -1.719 m
0.438 -1.719 L
0.438 -2.359 L
4.125 -2.359 L
4.125 -1.719 L
cp
F
[1 0 0 1 3.504 0 ]  concat
1 w
[ ] 0 setdash
P
%%IncludeResource: font Helvetica
%%IncludeFont: Helvetica
6.48 /Helvetica Msf
p
[1 0 0 1 3.004 5.672 ]  concat
1 w
[ ] 0 setdash
3.953 -0.688 m
1.047 -0.688 L
1.109 -1.141 1.359 -1.422 2.047 -1.828 C
2.828 -2.25 L
3.594 -2.672 4 -3.234 4 -3.922 C
4 -4.375 3.812 -4.812 3.484 -5.109 C
3.156 -5.406 2.75 -5.547 2.219 -5.547 C
1.516 -5.547 1 -5.297 0.688 -4.828 C
0.5 -4.531 0.406 -4.188 0.391 -3.625 C
1.078 -3.625 L
1.109 -4 1.156 -4.219 1.25 -4.406 C
1.422 -4.734 1.781 -4.938 2.203 -4.938 C
2.828 -4.938 3.297 -4.5 3.297 -3.906 C
3.297 -3.469 3.031 -3.094 2.547 -2.812 C
1.828 -2.406 L
0.672 -1.75 0.328 -1.219 0.266 0 C
3.953 0 L
3.953 -0.688 L
cp
F
[1 0 0 1 3.605 0 ]  concat
1 w
[ ] 0 setdash
2.156 -5.547 m
1.641 -5.547 1.172 -5.312 0.875 -4.938 C
0.516 -4.453 0.344 -3.703 0.344 -2.688 C
0.344 -0.812 0.969 0.188 2.156 0.188 C
3.328 0.188 3.969 -0.812 3.969 -2.641 C
3.969 -3.719 3.797 -4.438 3.422 -4.938 C
3.141 -5.328 2.672 -5.547 2.156 -5.547 C
cp
2.156 -4.938 m
2.891 -4.938 3.266 -4.188 3.266 -2.703 C
3.266 -1.125 2.906 -0.391 2.141 -0.391 C
1.406 -0.391 1.047 -1.156 1.047 -2.672 C
1.047 -4.188 1.406 -4.938 2.156 -4.938 C
cp
F
[1 0 0 1 3.605 0 ]  concat
1 w
[ ] 0 setdash
P
P
[1 0 0 1 -1.42e-14 -118.972 ]  concat
1 w
[ ] 0 setdash
P
P
[ ] 0 setdash
p
0 setlinecap
17.782 116.812 m
17.782 115.059 L
s
P
p
0 setlinecap
30.206 116.812 m
30.206 115.059 L
s
P
p
0 setlinecap
42.63 116.812 m
42.63 115.059 L
s
P
p
0 setlinecap
55.055 116.812 m
55.055 115.059 L
s
P
p
0 setlinecap
67.479 116.812 m
67.479 113.89 L
s
P
p
np 61 117 m
61 128 L
74 128 L
74 117 L
cp
clip np
p
1 w
0 g
0 g
[ ] 0 setdash
2 setlinecap
0 setlinejoin
10 setmiterlimit
[1 0 0 1 62.121 118.972 ]  concat
1 w
[ ] 0 setdash
p
np -2.121 -2.972 m
-2.121 10.028 L
12.879 10.028 L
12.879 -2.972 L
cp
clip np
%%IncludeResource: font MathematicaSans
%%IncludeFont: MathematicaSans
6.48 /MathematicaSans Msf
0 g
p
[1 0 0 1 -0.5 5.672 ]  concat
1 w
[ ] 0 setdash
4.125 -1.719 m
0.438 -1.719 L
0.438 -2.359 L
4.125 -2.359 L
4.125 -1.719 L
cp
F
[1 0 0 1 3.504 0 ]  concat
1 w
[ ] 0 setdash
P
%%IncludeResource: font Helvetica
%%IncludeFont: Helvetica
6.48 /Helvetica Msf
p
[1 0 0 1 3.004 5.672 ]  concat
1 w
[ ] 0 setdash
2.031 -3.953 m
2.031 0 L
2.719 0 L
2.719 -5.547 L
2.266 -5.547 L
2.016 -4.688 1.859 -4.578 0.797 -4.438 C
0.797 -3.953 L
2.031 -3.953 L
cp
F
[1 0 0 1 3.605 0 ]  concat
1 w
[ ] 0 setdash
2.156 -5.547 m
1.641 -5.547 1.172 -5.312 0.875 -4.938 C
0.516 -4.453 0.344 -3.703 0.344 -2.688 C
0.344 -0.812 0.969 0.188 2.156 0.188 C
3.328 0.188 3.969 -0.812 3.969 -2.641 C
3.969 -3.719 3.797 -4.438 3.422 -4.938 C
3.141 -5.328 2.672 -5.547 2.156 -5.547 C
cp
2.156 -4.938 m
2.891 -4.938 3.266 -4.188 3.266 -2.703 C
3.266 -1.125 2.906 -0.391 2.141 -0.391 C
1.406 -0.391 1.047 -1.156 1.047 -2.672 C
1.047 -4.188 1.406 -4.938 2.156 -4.938 C
cp
F
[1 0 0 1 3.605 0 ]  concat
1 w
[ ] 0 setdash
P
P
[1 0 0 1 -62.121 -118.972 ]  concat
1 w
[ ] 0 setdash
P
P
[ ] 0 setdash
p
0 setlinecap
79.903 116.812 m
79.903 115.059 L
s
P
p
0 setlinecap
92.327 116.812 m
92.327 115.059 L
s
P
p
0 setlinecap
104.752 116.812 m
104.752 115.059 L
s
P
p
0 setlinecap
117.176 116.812 m
117.176 115.059 L
s
P
p
0 setlinecap
129.6 116.812 m
129.6 113.89 L
s
P
[1 0 0 1 127.798 118.972 ]  concat
0.36 w
[ ] 0 setdash
p
np -2.798 -2.972 m
-2.798 10.028 L
6.202 10.028 L
6.202 -2.972 L
cp
clip np
P
[1 0 0 1 -127.798 -118.972 ]  concat
0.36 w
[ ] 0 setdash
[1 0 0 1 0 0 ]  concat
0.36 w
[ ] 0 setdash
[ ] 0 setdash
p
0 setlinecap
142.025 116.812 m
142.025 115.059 L
s
P
p
0 setlinecap
154.449 116.812 m
154.449 115.059 L
s
P
p
0 setlinecap
166.873 116.812 m
166.873 115.059 L
s
P
p
0 setlinecap
179.297 116.812 m
179.297 115.059 L
s
P
p
0 setlinecap
191.722 116.812 m
191.722 113.89 L
s
P
[1 0 0 1 0 0 ]  concat
0.36 w
[ ] 0 setdash
p
np 187 117 m
187 128 L
197 128 L
197 117 L
cp
clip np
p
1 w
0 g
0 g
[ ] 0 setdash
2 setlinecap
0 setlinejoin
10 setmiterlimit
[1 0 0 1 188.116 118.972 ]  concat
1 w
[ ] 0 setdash
p
np -2.116 -2.972 m
-2.116 10.028 L
9.884 10.028 L
9.884 -2.972 L
cp
clip np
%%IncludeResource: font Helvetica
%%IncludeFont: Helvetica
6.48 /Helvetica Msf
0 g
p
[1 0 0 1 -0.5 5.672 ]  concat
1 w
[ ] 0 setdash
2.031 -3.953 m
2.031 0 L
2.719 0 L
2.719 -5.547 L
2.266 -5.547 L
2.016 -4.688 1.859 -4.578 0.797 -4.438 C
0.797 -3.953 L
2.031 -3.953 L
cp
F
[1 0 0 1 3.605 0 ]  concat
1 w
[ ] 0 setdash
2.156 -5.547 m
1.641 -5.547 1.172 -5.312 0.875 -4.938 C
0.516 -4.453 0.344 -3.703 0.344 -2.688 C
0.344 -0.812 0.969 0.188 2.156 0.188 C
3.328 0.188 3.969 -0.812 3.969 -2.641 C
3.969 -3.719 3.797 -4.438 3.422 -4.938 C
3.141 -5.328 2.672 -5.547 2.156 -5.547 C
cp
2.156 -4.938 m
2.891 -4.938 3.266 -4.188 3.266 -2.703 C
3.266 -1.125 2.906 -0.391 2.141 -0.391 C
1.406 -0.391 1.047 -1.156 1.047 -2.672 C
1.047 -4.188 1.406 -4.938 2.156 -4.938 C
cp
F
[1 0 0 1 3.605 0 ]  concat
1 w
[ ] 0 setdash
P
P
[1 0 0 1 -188.116 -118.972 ]  concat
1 w
[ ] 0 setdash
P
P
[1 0 0 1 0 0 ]  concat
0.36 w
[ ] 0 setdash
[ ] 0 setdash
p
0 setlinecap
204.146 116.812 m
204.146 115.059 L
s
P
p
0 setlinecap
216.57 116.812 m
216.57 115.059 L
s
P
p
0 setlinecap
228.995 116.812 m
228.995 115.059 L
s
P
p
0 setlinecap
241.419 116.812 m
241.419 115.059 L
s
P
p
0 setlinecap
253.843 116.812 m
253.843 113.89 L
s
P
[1 0 0 1 0 0 ]  concat
0.36 w
[ ] 0 setdash
p
np 249 117 m
249 128 L
259 128 L
259 117 L
cp
clip np
p
1 w
0 g
0 g
[ ] 0 setdash
2 setlinecap
0 setlinejoin
10 setmiterlimit
[1 0 0 1 250.238 118.972 ]  concat
1 w
[ ] 0 setdash
p
np -2.238 -2.972 m
-2.238 10.028 L
9.762 10.028 L
9.762 -2.972 L
cp
clip np
%%IncludeResource: font Helvetica
%%IncludeFont: Helvetica
6.48 /Helvetica Msf
0 g
p
[1 0 0 1 -0.5 5.672 ]  concat
1 w
[ ] 0 setdash
3.953 -0.688 m
1.047 -0.688 L
1.109 -1.141 1.359 -1.422 2.047 -1.828 C
2.828 -2.25 L
3.594 -2.672 4 -3.234 4 -3.922 C
4 -4.375 3.812 -4.812 3.484 -5.109 C
3.156 -5.406 2.75 -5.547 2.219 -5.547 C
1.516 -5.547 1 -5.297 0.688 -4.828 C
0.5 -4.531 0.406 -4.188 0.391 -3.625 C
1.078 -3.625 L
1.109 -4 1.156 -4.219 1.25 -4.406 C
1.422 -4.734 1.781 -4.938 2.203 -4.938 C
2.828 -4.938 3.297 -4.5 3.297 -3.906 C
3.297 -3.469 3.031 -3.094 2.547 -2.812 C
1.828 -2.406 L
0.672 -1.75 0.328 -1.219 0.266 0 C
3.953 0 L
3.953 -0.688 L
cp
F
[1 0 0 1 3.605 0 ]  concat
1 w
[ ] 0 setdash
2.156 -5.547 m
1.641 -5.547 1.172 -5.312 0.875 -4.938 C
0.516 -4.453 0.344 -3.703 0.344 -2.688 C
0.344 -0.812 0.969 0.188 2.156 0.188 C
3.328 0.188 3.969 -0.812 3.969 -2.641 C
3.969 -3.719 3.797 -4.438 3.422 -4.938 C
3.141 -5.328 2.672 -5.547 2.156 -5.547 C
cp
2.156 -4.938 m
2.891 -4.938 3.266 -4.188 3.266 -2.703 C
3.266 -1.125 2.906 -0.391 2.141 -0.391 C
1.406 -0.391 1.047 -1.156 1.047 -2.672 C
1.047 -4.188 1.406 -4.938 2.156 -4.938 C
cp
F
[1 0 0 1 3.605 0 ]  concat
1 w
[ ] 0 setdash
P
P
[1 0 0 1 -250.238 -118.972 ]  concat
1 w
[ ] 0 setdash
P
P
[1 0 0 1 0 0 ]  concat
0.36 w
[ ] 0 setdash
[ ] 0 setdash
p
0 setlinecap
0.181 116.812 m
259.02 116.812 L
s
P
p
0 setlinecap
129.6 183.488 m
131.353 183.488 L
s
P
p
0 setlinecap
129.6 176.821 m
131.353 176.821 L
s
P
p
0 setlinecap
129.6 170.153 m
132.522 170.153 L
s
P
[1 0 0 1 0 0 ]  concat
0.36 w
[ ] 0 setdash
p
np 113 165 m
113 176 L
129 176 L
129 165 L
cp
clip np
p
1 w
0 g
0 g
[ ] 0 setdash
2 setlinecap
0 setlinejoin
10 setmiterlimit
[1 0 0 1 114.923 166.145 ]  concat
1 w
[ ] 0 setdash
p
np -2.923 -2.145 m
-2.923 10.855 L
15.077 10.855 L
15.077 -2.145 L
cp
clip np
%%IncludeResource: font MathematicaSans
%%IncludeFont: MathematicaSans
6.48 /MathematicaSans Msf
0 g
p
[1 0 0 1 -0.5 5.672 ]  concat
1 w
[ ] 0 setdash
4.125 -1.719 m
0.438 -1.719 L
0.438 -2.359 L
4.125 -2.359 L
4.125 -1.719 L
cp
F
[1 0 0 1 3.504 0 ]  concat
1 w
[ ] 0 setdash
P
%%IncludeResource: font Helvetica
%%IncludeFont: Helvetica
6.48 /Helvetica Msf
p
[1 0 0 1 3.004 5.672 ]  concat
1 w
[ ] 0 setdash
2.156 -5.547 m
1.641 -5.547 1.172 -5.312 0.875 -4.938 C
0.516 -4.453 0.344 -3.703 0.344 -2.688 C
0.344 -0.812 0.969 0.188 2.156 0.188 C
3.328 0.188 3.969 -0.812 3.969 -2.641 C
3.969 -3.719 3.797 -4.438 3.422 -4.938 C
3.141 -5.328 2.672 -5.547 2.156 -5.547 C
cp
2.156 -4.938 m
2.891 -4.938 3.266 -4.188 3.266 -2.703 C
3.266 -1.125 2.906 -0.391 2.141 -0.391 C
1.406 -0.391 1.047 -1.156 1.047 -2.672 C
1.047 -4.188 1.406 -4.938 2.156 -4.938 C
cp
F
[1 0 0 1 3.605 0 ]  concat
1 w
[ ] 0 setdash
1.5 -0.812 m
0.688 -0.812 L
0.688 0 L
1.5 0 L
1.5 -0.812 L
cp
F
[1 0 0 1 1.803 0 ]  concat
1 w
[ ] 0 setdash
2.562 -1.328 m
2.562 0 L
3.25 0 L
3.25 -1.328 L
4.062 -1.328 L
4.062 -1.953 L
3.25 -1.953 L
3.25 -5.547 L
2.734 -5.547 L
0.219 -2.062 L
0.219 -1.328 L
2.562 -1.328 L
cp
2.562 -1.953 m
0.828 -1.953 L
2.562 -4.375 L
2.562 -1.953 L
cp
F
[1 0 0 1 3.605 0 ]  concat
1 w
[ ] 0 setdash
P
P
[1 0 0 1 -114.923 -166.145 ]  concat
1 w
[ ] 0 setdash
P
P
[1 0 0 1 0 0 ]  concat
0.36 w
[ ] 0 setdash
[ ] 0 setdash
p
0 setlinecap
129.6 163.486 m
131.353 163.486 L
s
P
p
0 setlinecap
129.6 156.818 m
131.353 156.818 L
s
P
p
0 setlinecap
129.6 150.15 m
131.353 150.15 L
s
P
p
0 setlinecap
129.6 143.483 m
132.522 143.483 L
s
P
[1 0 0 1 0 0 ]  concat
0.36 w
[ ] 0 setdash
p
np 113 138 m
113 149 L
129 149 L
129 138 L
cp
clip np
p
1 w
0 g
0 g
[ ] 0 setdash
2 setlinecap
0 setlinejoin
10 setmiterlimit
[1 0 0 1 114.923 139.475 ]  concat
1 w
[ ] 0 setdash
p
np -2.923 -2.475 m
-2.923 10.525 L
15.077 10.525 L
15.077 -2.475 L
cp
clip np
%%IncludeResource: font MathematicaSans
%%IncludeFont: MathematicaSans
6.48 /MathematicaSans Msf
0 g
p
[1 0 0 1 -0.5 5.672 ]  concat
1 w
[ ] 0 setdash
4.125 -1.719 m
0.438 -1.719 L
0.438 -2.359 L
4.125 -2.359 L
4.125 -1.719 L
cp
F
[1 0 0 1 3.504 0 ]  concat
1 w
[ ] 0 setdash
P
%%IncludeResource: font Helvetica
%%IncludeFont: Helvetica
6.48 /Helvetica Msf
p
[1 0 0 1 3.004 5.672 ]  concat
1 w
[ ] 0 setdash
2.156 -5.547 m
1.641 -5.547 1.172 -5.312 0.875 -4.938 C
0.516 -4.453 0.344 -3.703 0.344 -2.688 C
0.344 -0.812 0.969 0.188 2.156 0.188 C
3.328 0.188 3.969 -0.812 3.969 -2.641 C
3.969 -3.719 3.797 -4.438 3.422 -4.938 C
3.141 -5.328 2.672 -5.547 2.156 -5.547 C
cp
2.156 -4.938 m
2.891 -4.938 3.266 -4.188 3.266 -2.703 C
3.266 -1.125 2.906 -0.391 2.141 -0.391 C
1.406 -0.391 1.047 -1.156 1.047 -2.672 C
1.047 -4.188 1.406 -4.938 2.156 -4.938 C
cp
F
[1 0 0 1 3.605 0 ]  concat
1 w
[ ] 0 setdash
1.5 -0.812 m
0.688 -0.812 L
0.688 0 L
1.5 0 L
1.5 -0.812 L
cp
F
[1 0 0 1 1.803 0 ]  concat
1 w
[ ] 0 setdash
3.953 -0.688 m
1.047 -0.688 L
1.109 -1.141 1.359 -1.422 2.047 -1.828 C
2.828 -2.25 L
3.594 -2.672 4 -3.234 4 -3.922 C
4 -4.375 3.812 -4.812 3.484 -5.109 C
3.156 -5.406 2.75 -5.547 2.219 -5.547 C
1.516 -5.547 1 -5.297 0.688 -4.828 C
0.5 -4.531 0.406 -4.188 0.391 -3.625 C
1.078 -3.625 L
1.109 -4 1.156 -4.219 1.25 -4.406 C
1.422 -4.734 1.781 -4.938 2.203 -4.938 C
2.828 -4.938 3.297 -4.5 3.297 -3.906 C
3.297 -3.469 3.031 -3.094 2.547 -2.812 C
1.828 -2.406 L
0.672 -1.75 0.328 -1.219 0.266 0 C
3.953 0 L
3.953 -0.688 L
cp
F
[1 0 0 1 3.605 0 ]  concat
1 w
[ ] 0 setdash
P
P
[1 0 0 1 -114.923 -139.475 ]  concat
1 w
[ ] 0 setdash
P
P
[1 0 0 1 0 0 ]  concat
0.36 w
[ ] 0 setdash
[ ] 0 setdash
p
0 setlinecap
129.6 136.815 m
131.353 136.815 L
s
P
p
0 setlinecap
129.6 130.147 m
131.353 130.147 L
s
P
p
0 setlinecap
129.6 123.48 m
131.353 123.48 L
s
P
p
0 setlinecap
129.6 116.812 m
132.522 116.812 L
s
P
[1 0 0 1 0 0 ]  concat
0.36 w
[ ] 0 setdash
[1 0 0 1 118.427 112.804 ]  concat
0.36 w
[ ] 0 setdash
p
np -2.427 -2.804 m
-2.427 10.196 L
11.573 10.196 L
11.573 -2.804 L
cp
clip np
P
[1 0 0 1 -118.427 -112.804 ]  concat
0.36 w
[ ] 0 setdash
[1 0 0 1 0 0 ]  concat
0.36 w
[ ] 0 setdash
[ ] 0 setdash
p
0 setlinecap
129.6 110.145 m
131.353 110.145 L
s
P
p
0 setlinecap
129.6 103.477 m
131.353 103.477 L
s
P
p
0 setlinecap
129.6 96.809 m
131.353 96.809 L
s
P
p
0 setlinecap
129.6 90.142 m
132.522 90.142 L
s
P
[1 0 0 1 0 0 ]  concat
0.36 w
[ ] 0 setdash
p
np 117 85 m
117 96 L
129 96 L
129 85 L
cp
clip np
p
1 w
0 g
0 g
[ ] 0 setdash
2 setlinecap
0 setlinejoin
10 setmiterlimit
[1 0 0 1 118.427 86.134 ]  concat
1 w
[ ] 0 setdash
p
np -2.427 -2.134 m
-2.427 10.866 L
11.573 10.866 L
11.573 -2.134 L
cp
clip np
%%IncludeResource: font Helvetica
%%IncludeFont: Helvetica
6.48 /Helvetica Msf
0 g
p
[1 0 0 1 -0.5 5.672 ]  concat
1 w
[ ] 0 setdash
2.156 -5.547 m
1.641 -5.547 1.172 -5.312 0.875 -4.938 C
0.516 -4.453 0.344 -3.703 0.344 -2.688 C
0.344 -0.812 0.969 0.188 2.156 0.188 C
3.328 0.188 3.969 -0.812 3.969 -2.641 C
3.969 -3.719 3.797 -4.438 3.422 -4.938 C
3.141 -5.328 2.672 -5.547 2.156 -5.547 C
cp
2.156 -4.938 m
2.891 -4.938 3.266 -4.188 3.266 -2.703 C
3.266 -1.125 2.906 -0.391 2.141 -0.391 C
1.406 -0.391 1.047 -1.156 1.047 -2.672 C
1.047 -4.188 1.406 -4.938 2.156 -4.938 C
cp
F
[1 0 0 1 3.605 0 ]  concat
1 w
[ ] 0 setdash
1.5 -0.812 m
0.688 -0.812 L
0.688 0 L
1.5 0 L
1.5 -0.812 L
cp
F
[1 0 0 1 1.803 0 ]  concat
1 w
[ ] 0 setdash
3.953 -0.688 m
1.047 -0.688 L
1.109 -1.141 1.359 -1.422 2.047 -1.828 C
2.828 -2.25 L
3.594 -2.672 4 -3.234 4 -3.922 C
4 -4.375 3.812 -4.812 3.484 -5.109 C
3.156 -5.406 2.75 -5.547 2.219 -5.547 C
1.516 -5.547 1 -5.297 0.688 -4.828 C
0.5 -4.531 0.406 -4.188 0.391 -3.625 C
1.078 -3.625 L
1.109 -4 1.156 -4.219 1.25 -4.406 C
1.422 -4.734 1.781 -4.938 2.203 -4.938 C
2.828 -4.938 3.297 -4.5 3.297 -3.906 C
3.297 -3.469 3.031 -3.094 2.547 -2.812 C
1.828 -2.406 L
0.672 -1.75 0.328 -1.219 0.266 0 C
3.953 0 L
3.953 -0.688 L
cp
F
[1 0 0 1 3.605 0 ]  concat
1 w
[ ] 0 setdash
P
P
[1 0 0 1 -118.427 -86.134 ]  concat
1 w
[ ] 0 setdash
P
P
[1 0 0 1 0 0 ]  concat
0.36 w
[ ] 0 setdash
[ ] 0 setdash
p
0 setlinecap
129.6 83.474 m
131.353 83.474 L
s
P
p
0 setlinecap
129.6 76.807 m
131.353 76.807 L
s
P
p
0 setlinecap
129.6 70.139 m
131.353 70.139 L
s
P
p
0 setlinecap
129.6 63.471 m
132.522 63.471 L
s
P
[1 0 0 1 0 0 ]  concat
0.36 w
[ ] 0 setdash
p
np 117 58 m
117 69 L
129 69 L
129 58 L
cp
clip np
p
1 w
0 g
0 g
[ ] 0 setdash
2 setlinecap
0 setlinejoin
10 setmiterlimit
[1 0 0 1 118.427 59.463 ]  concat
1 w
[ ] 0 setdash
p
np -2.427 -2.463 m
-2.427 10.537 L
11.573 10.537 L
11.573 -2.463 L
cp
clip np
%%IncludeResource: font Helvetica
%%IncludeFont: Helvetica
6.48 /Helvetica Msf
0 g
p
[1 0 0 1 -0.5 5.672 ]  concat
1 w
[ ] 0 setdash
2.156 -5.547 m
1.641 -5.547 1.172 -5.312 0.875 -4.938 C
0.516 -4.453 0.344 -3.703 0.344 -2.688 C
0.344 -0.812 0.969 0.188 2.156 0.188 C
3.328 0.188 3.969 -0.812 3.969 -2.641 C
3.969 -3.719 3.797 -4.438 3.422 -4.938 C
3.141 -5.328 2.672 -5.547 2.156 -5.547 C
cp
2.156 -4.938 m
2.891 -4.938 3.266 -4.188 3.266 -2.703 C
3.266 -1.125 2.906 -0.391 2.141 -0.391 C
1.406 -0.391 1.047 -1.156 1.047 -2.672 C
1.047 -4.188 1.406 -4.938 2.156 -4.938 C
cp
F
[1 0 0 1 3.605 0 ]  concat
1 w
[ ] 0 setdash
1.5 -0.812 m
0.688 -0.812 L
0.688 0 L
1.5 0 L
1.5 -0.812 L
cp
F
[1 0 0 1 1.803 0 ]  concat
1 w
[ ] 0 setdash
2.562 -1.328 m
2.562 0 L
3.25 0 L
3.25 -1.328 L
4.062 -1.328 L
4.062 -1.953 L
3.25 -1.953 L
3.25 -5.547 L
2.734 -5.547 L
0.219 -2.062 L
0.219 -1.328 L
2.562 -1.328 L
cp
2.562 -1.953 m
0.828 -1.953 L
2.562 -4.375 L
2.562 -1.953 L
cp
F
[1 0 0 1 3.605 0 ]  concat
1 w
[ ] 0 setdash
P
P
[1 0 0 1 -118.427 -59.463 ]  concat
1 w
[ ] 0 setdash
P
P
[1 0 0 1 0 0 ]  concat
0.36 w
[ ] 0 setdash
[ ] 0 setdash
p
0 setlinecap
129.6 56.804 m
131.353 56.804 L
s
P
p
0 setlinecap
129.6 50.136 m
131.353 50.136 L
s
P
p
0 setlinecap
129.6 43.468 m
131.353 43.468 L
s
P
p
0 setlinecap
129.6 36.801 m
132.522 36.801 L
s
P
[1 0 0 1 0 0 ]  concat
0.36 w
[ ] 0 setdash
p
np 117 31 m
117 42 L
129 42 L
129 31 L
cp
clip np
p
1 w
0 g
0 g
[ ] 0 setdash
2 setlinecap
0 setlinejoin
10 setmiterlimit
[1 0 0 1 118.427 32.793 ]  concat
1 w
[ ] 0 setdash
p
np -2.427 -2.793 m
-2.427 10.207 L
11.573 10.207 L
11.573 -2.793 L
cp
clip np
%%IncludeResource: font Helvetica
%%IncludeFont: Helvetica
6.48 /Helvetica Msf
0 g
p
[1 0 0 1 -0.5 5.672 ]  concat
1 w
[ ] 0 setdash
2.156 -5.547 m
1.641 -5.547 1.172 -5.312 0.875 -4.938 C
0.516 -4.453 0.344 -3.703 0.344 -2.688 C
0.344 -0.812 0.969 0.188 2.156 0.188 C
3.328 0.188 3.969 -0.812 3.969 -2.641 C
3.969 -3.719 3.797 -4.438 3.422 -4.938 C
3.141 -5.328 2.672 -5.547 2.156 -5.547 C
cp
2.156 -4.938 m
2.891 -4.938 3.266 -4.188 3.266 -2.703 C
3.266 -1.125 2.906 -0.391 2.141 -0.391 C
1.406 -0.391 1.047 -1.156 1.047 -2.672 C
1.047 -4.188 1.406 -4.938 2.156 -4.938 C
cp
F
[1 0 0 1 3.605 0 ]  concat
1 w
[ ] 0 setdash
1.5 -0.812 m
0.688 -0.812 L
0.688 0 L
1.5 0 L
1.5 -0.812 L
cp
F
[1 0 0 1 1.803 0 ]  concat
1 w
[ ] 0 setdash
3.891 -4.094 m
3.766 -5 3.172 -5.547 2.328 -5.547 C
1.719 -5.547 1.172 -5.25 0.844 -4.75 C
0.5 -4.219 0.344 -3.531 0.344 -2.531 C
0.344 -1.594 0.484 -1 0.812 -0.516 C
1.109 -0.0625 1.594 0.188 2.203 0.188 C
3.25 0.188 4.016 -0.609 4.016 -1.688 C
4.016 -2.719 3.312 -3.453 2.312 -3.453 C
1.766 -3.453 1.344 -3.234 1.047 -2.828 C
1.047 -4.188 1.484 -4.938 2.281 -4.938 C
2.766 -4.938 3.094 -4.625 3.203 -4.094 C
3.891 -4.094 L
cp
2.234 -2.844 m
2.891 -2.844 3.312 -2.375 3.312 -1.641 C
3.312 -0.938 2.844 -0.438 2.203 -0.438 C
1.562 -0.438 1.078 -0.969 1.078 -1.672 C
1.078 -2.359 1.547 -2.844 2.234 -2.844 C
cp
F
[1 0 0 1 3.605 0 ]  concat
1 w
[ ] 0 setdash
P
P
[1 0 0 1 -118.427 -32.793 ]  concat
1 w
[ ] 0 setdash
P
P
[1 0 0 1 0 0 ]  concat
0.36 w
[ ] 0 setdash
[ ] 0 setdash
p
0 setlinecap
129.6 30.133 m
131.353 30.133 L
s
P
p
0 setlinecap
129.6 185.564 m
129.6 25.592 L
s
P
p
P
P
P
1 w
0 g
0 g
[ ] 0 setdash
2 setlinecap
0 setlinejoin
10 setmiterlimit
P
P
%Trailer
%EOF
